files/2010/IE2003/lab/lab6/screenshots-osciloscopio/ALL0005/F0005CH1.CSV

Record Length,2.500000e+03,,  -0.020200000000,  -6.40000,
Sample Interval,2.000000e-05,,  -0.020180000000,  -6.40000,
Trigger Point,1.010000000000e+03,,  -0.020160000000,  -5.60000,
,,,  -0.020140000000,  -5.60000,
,,,  -0.020120000000,  -5.60000,
,,,  -0.020100000000,  -4.80000,
Source,CH1,,  -0.020080000000,  -4.00000,
Vertical Units,V,,  -0.020060000000,  -4.00000,
Vertical Scale,2.000000e+01,,  -0.020040000000,  -4.00000,
Vertical Offset,1.680000e+01,,  -0.020020000000,  -3.20000,
Horizontal Units,s,,  -0.020000000000,  -3.20000,
Horizontal Scale,5.000000e-03,,  -0.019980000000,  -3.20000,
Pt Fmt,Y,,  -0.019960000000,  -2.40000,
Yzero,0.000000e+00,,  -0.019940000000,  -2.40000,
Probe Atten,1.000000e+01,,  -0.019920000000,  -2.40000,
Firmware Version,FV:v6.08,,  -0.019900000000,  -1.60000,
,,,-00.019880000000,  -0.80000,
,,,-00.019860000000,  -0.80000,
,,,-00.019840000000,  -0.80000,
,,,-00.019820000000,   0.00000,
,,,-00.019800000000,  -0.80000,
,,,-00.019780000000,   0.00000,
,,,-00.019760000000,   0.80000,
,,,-00.019740000000,   0.80000,
,,,-00.019720000000,   1.60000,
,,,-00.019700000000,   1.60000,
,,,-00.019680000000,   2.40000,
,,,-00.019660000000,   2.40000,
,,,-00.019640000000,   2.40000,
,,,-00.019620000000,   3.20000,
,,,-00.019600000000,   3.20000,
,,,-00.019580000000,   4.00000,
,,,-00.019560000000,   4.00000,
,,,-00.019540000000,   4.00000,
,,,-00.019520000000,   4.80000,
,,,-00.019500000000,   5.60000,
,,,-00.019480000000,   5.60000,
,,,-00.019460000000,   5.60000,
,,,-00.019440000000,   6.40000,
,,,-00.019420000000,   6.40000,
,,,-00.019400000000,   6.40000,
,,,-00.019380000000,   8.00000,
,,,-00.019360000000,   7.20000,
,,,-00.019340000000,   8.00000,
,,,-00.019320000000,   8.00000,
,,,-00.019300000000,   8.00000,
,,,-00.019280000000,   8.00000,
,,,-00.019260000000,   8.80000,
,,,-00.019240000000,   9.60000,
,,,-00.019220000000,   9.60000,
,,,-00.019200000000,   9.60000,
,,,-00.019180000000,  10.40000,
,,,-00.019160000000,  11.20000,
,,,-00.019140000000,  11.20000,
,,,-00.019120000000,  11.20000,
,,,-00.019100000000,  11.20000,
,,,-00.019080000000,  11.20000,
,,,-00.019060000000,  12.00000,
,,,-00.019040000000,  12.00000,
,,,-00.019020000000,  12.80000,
,,,-00.019000000000,  12.80000,
,,,-00.018980000000,  13.60000,
,,,-00.018960000000,  13.60000,
,,,-00.018940000000,  13.60000,
,,,-00.018920000000,  14.40000,
,,,-00.018900000000,  14.40000,
,,,-00.018880000000,  15.20000,
,,,-00.018860000000,  16.00000,
,,,-00.018840000000,  15.20000,
,,,-00.018820000000,  16.00000,
,,,-00.018800000000,  16.00000,
,,,-00.018780000000,  16.80000,
,,,-00.018760000000,  16.80000,
,,,-00.018740000000,  17.60000,
,,,-00.018720000000,  17.60000,
,,,-00.018700000000,  17.60000,
,,,-00.018680000000,  18.40000,
,,,-00.018660000000,  18.40000,
,,,-00.018640000000,  18.40000,
,,,-00.018620000000,  19.20000,
,,,-00.018600000000,  19.20000,
,,,-00.018580000000,  19.20000,
,,,-00.018560000000,  20.00000,
,,,-00.018540000000,  20.00000,
,,,-00.018520000000,  20.80000,
,,,-00.018500000000,  21.60000,
,,,-00.018480000000,  21.60000,
,,,-00.018460000000,  21.60000,
,,,-00.018440000000,  21.60000,
,,,-00.018420000000,  21.60000,
,,,-00.018400000000,  22.40000,
,,,-00.018380000000,  22.40000,
,,,-00.018360000000,  23.20000,
,,,-00.018340000000,  23.20000,
,,,-00.018320000000,  23.20000,
,,,-00.018300000000,  24.00000,
,,,-00.018280000000,  24.00000,
,,,-00.018260000000,  24.80000,
,,,-00.018240000000,  24.80000,
,,,-00.018220000000,  24.80000,
,,,-00.018200000000,  24.80000,
,,,-00.018180000000,  25.60000,
,,,-00.018160000000,  26.40000,
,,,-00.018140000000,  26.40000,
,,,-00.018120000000,  26.40000,
,,,-00.018100000000,  26.40000,
,,,-00.018080000000,  26.40000,
,,,-00.018060000000,  26.40000,
,,,-00.018040000000,  27.20000,
,,,-00.018020000000,  27.20000,
,,,-00.018000000000,  28.00000,
,,,-00.017980000000,  28.00000,
,,,-00.017960000000,  28.00000,
,,,-00.017940000000,  28.80000,
,,,-00.017920000000,  28.80000,
,,,-00.017900000000,  28.80000,
,,,-00.017880000000,  29.60000,
,,,-00.017860000000,  29.60000,
,,,-00.017840000000,  30.40000,
,,,-00.017820000000,  30.40000,
,,,-00.017800000000,  30.40000,
,,,-00.017780000000,  31.20000,
,,,-00.017760000000,  31.20000,
,,,-00.017740000000,  31.20000,
,,,-00.017720000000,  31.20000,
,,,-00.017700000000,  32.00000,
,,,-00.017680000000,  32.80000,
,,,-00.017660000000,  32.00000,
,,,-00.017640000000,  32.80000,
,,,-00.017620000000,  32.80000,
,,,-00.017600000000,  32.80000,
,,,-00.017580000000,  33.60000,
,,,-00.017560000000,  33.60000,
,,,-00.017540000000,  33.60000,
,,,-00.017520000000,  34.40000,
,,,-00.017500000000,  34.40000,
,,,-00.017480000000,  34.40000,
,,,-00.017460000000,  35.20000,
,,,-00.017440000000,  35.20000,
,,,-00.017420000000,  35.20000,
,,,-00.017400000000,  36.00000,
,,,-00.017380000000,  36.00000,
,,,-00.017360000000,  36.00000,
,,,-00.017340000000,  36.00000,
,,,-00.017320000000,  36.80000,
,,,-00.017300000000,  36.80000,
,,,-00.017280000000,  36.80000,
,,,-00.017260000000,  36.80000,
,,,-00.017240000000,  36.80000,
,,,-00.017220000000,  37.60000,
,,,-00.017200000000,  37.60000,
,,,-00.017180000000,  38.40000,
,,,-00.017160000000,  38.40000,
,,,-00.017140000000,  38.40000,
,,,-00.017120000000,  38.40000,
,,,-00.017100000000,  38.40000,
,,,-00.017080000000,  38.40000,
,,,-00.017060000000,  39.20000,
,,,-00.017040000000,  38.40000,
,,,-00.017020000000,  39.20000,
,,,-00.017000000000,  40.00000,
,,,-00.016980000000,  39.20000,
,,,-00.016960000000,  40.00000,
,,,-00.016940000000,  40.00000,
,,,-00.016920000000,  40.80000,
,,,-00.016900000000,  40.80000,
,,,-00.016880000000,  40.80000,
,,,-00.016860000000,  40.80000,
,,,-00.016840000000,  40.80000,
,,,-00.016820000000,  40.80000,
,,,-00.016800000000,  41.60000,
,,,-00.016780000000,  41.60000,
,,,-00.016760000000,  41.60000,
,,,-00.016740000000,  41.60000,
,,,-00.016720000000,  42.40000,
,,,-00.016700000000,  41.60000,
,,,-00.016680000000,  42.40000,
,,,-00.016660000000,  42.40000,
,,,-00.016640000000,  43.20000,
,,,-00.016620000000,  43.20000,
,,,-00.016600000000,  43.20000,
,,,-00.016580000000,  43.20000,
,,,-00.016560000000,  44.00000,
,,,-00.016540000000,  43.20000,
,,,-00.016520000000,  44.00000,
,,,-00.016500000000,  44.00000,
,,,-00.016480000000,  44.00000,
,,,-00.016460000000,  44.80000,
,,,-00.016440000000,  44.00000,
,,,-00.016420000000,  44.80000,
,,,-00.016400000000,  44.80000,
,,,-00.016380000000,  44.80000,
,,,-00.016360000000,  44.80000,
,,,-00.016340000000,  44.80000,
,,,-00.016320000000,  45.60000,
,,,-00.016300000000,  45.60000,
,,,-00.016280000000,  45.60000,
,,,-00.016260000000,  45.60000,
,,,-00.016240000000,  45.60000,
,,,-00.016220000000,  46.40000,
,,,-00.016200000000,  46.40000,
,,,-00.016180000000,  46.40000,
,,,-00.016160000000,  47.20000,
,,,-00.016140000000,  46.40000,
,,,-00.016120000000,  46.40000,
,,,-00.016100000000,  46.40000,
,,,-00.016080000000,  47.20000,
,,,-00.016060000000,  47.20000,
,,,-00.016040000000,  47.20000,
,,,-00.016020000000,  47.20000,
,,,-00.016000000000,  47.20000,
,,,-00.015980000000,  47.20000,
,,,-00.015960000000,  48.00000,
,,,-00.015940000000,  48.00000,
,,,-00.015920000000,  47.20000,
,,,-00.015900000000,  48.00000,
,,,-00.015880000000,  48.00000,
,,,-00.015860000000,  48.00000,
,,,-00.015840000000,  48.00000,
,,,-00.015820000000,  48.80000,
,,,-00.015800000000,  48.00000,
,,,-00.015780000000,  48.80000,
,,,-00.015760000000,  48.80000,
,,,-00.015740000000,  48.80000,
,,,-00.015720000000,  48.80000,
,,,-00.015700000000,  48.80000,
,,,-00.015680000000,  48.80000,
,,,-00.015660000000,  48.80000,
,,,-00.015640000000,  48.80000,
,,,-00.015620000000,  48.80000,
,,,-00.015600000000,  49.60000,
,,,-00.015580000000,  49.60000,
,,,-00.015560000000,  48.80000,
,,,-00.015540000000,  48.80000,
,,,-00.015520000000,  48.80000,
,,,-00.015500000000,  48.80000,
,,,-00.015480000000,  49.60000,
,,,-00.015460000000,  49.60000,
,,,-00.015440000000,  49.60000,
,,,-00.015420000000,  49.60000,
,,,-00.015400000000,  49.60000,
,,,-00.015380000000,  49.60000,
,,,-00.015360000000,  49.60000,
,,,-00.015340000000,  50.40000,
,,,-00.015320000000,  49.60000,
,,,-00.015300000000,  49.60000,
,,,-00.015280000000,  49.60000,
,,,-00.015260000000,  50.40000,
,,,-00.015240000000,  50.40000,
,,,-00.015220000000,  49.60000,
,,,-00.015200000000,  50.40000,
,,,-00.015180000000,  50.40000,
,,,-00.015160000000,  49.60000,
,,,-00.015140000000,  49.60000,
,,,-00.015120000000,  49.60000,
,,,-00.015100000000,  50.40000,
,,,-00.015080000000,  50.40000,
,,,-00.015060000000,  50.40000,
,,,-00.015040000000,  50.40000,
,,,-00.015020000000,  50.40000,
,,,-00.015000000000,  50.40000,
,,,-00.014980000000,  49.60000,
,,,-00.014960000000,  50.40000,
,,,-00.014940000000,  50.40000,
,,,-00.014920000000,  50.40000,
,,,-00.014900000000,  50.40000,
,,,-00.014880000000,  50.40000,
,,,-00.014860000000,  50.40000,
,,,-00.014840000000,  49.60000,
,,,-00.014820000000,  50.40000,
,,,-00.014800000000,  50.40000,
,,,-00.014780000000,  50.40000,
,,,-00.014760000000,  50.40000,
,,,-00.014740000000,  50.40000,
,,,-00.014720000000,  50.40000,
,,,-00.014700000000,  50.40000,
,,,-00.014680000000,  49.60000,
,,,-00.014660000000,  50.40000,
,,,-00.014640000000,  50.40000,
,,,-00.014620000000,  50.40000,
,,,-00.014600000000,  50.40000,
,,,-00.014580000000,  50.40000,
,,,-00.014560000000,  49.60000,
,,,-00.014540000000,  50.40000,
,,,-00.014520000000,  49.60000,
,,,-00.014500000000,  49.60000,
,,,-00.014480000000,  49.60000,
,,,-00.014460000000,  49.60000,
,,,-00.014440000000,  50.40000,
,,,-00.014420000000,  49.60000,
,,,-00.014400000000,  49.60000,
,,,-00.014380000000,  49.60000,
,,,-00.014360000000,  49.60000,
,,,-00.014340000000,  48.80000,
,,,-00.014320000000,  49.60000,
,,,-00.014300000000,  48.80000,
,,,-00.014280000000,  48.80000,
,,,-00.014260000000,  48.80000,
,,,-00.014240000000,  49.60000,
,,,-00.014220000000,  48.80000,
,,,-00.014200000000,  48.80000,
,,,-00.014180000000,  48.80000,
,,,-00.014160000000,  48.80000,
,,,-00.014140000000,  48.80000,
,,,-00.014120000000,  48.80000,
,,,-00.014100000000,  48.80000,
,,,-00.014080000000,  48.80000,
,,,-00.014060000000,  48.00000,
,,,-00.014040000000,  48.00000,
,,,-00.014020000000,  48.00000,
,,,-00.014000000000,  48.00000,
,,,-00.013980000000,  47.20000,
,,,-00.013960000000,  48.00000,
,,,-00.013940000000,  47.20000,
,,,-00.013920000000,  47.20000,
,,,-00.013900000000,  48.00000,
,,,-00.013880000000,  47.20000,
,,,-00.013860000000,  48.00000,
,,,-00.013840000000,  47.20000,
,,,-00.013820000000,  47.20000,
,,,-00.013800000000,  47.20000,
,,,-00.013780000000,  47.20000,
,,,-00.013760000000,  47.20000,
,,,-00.013740000000,  47.20000,
,,,-00.013720000000,  46.40000,
,,,-00.013700000000,  46.40000,
,,,-00.013680000000,  46.40000,
,,,-00.013660000000,  46.40000,
,,,-00.013640000000,  45.60000,
,,,-00.013620000000,  45.60000,
,,,-00.013600000000,  45.60000,
,,,-00.013580000000,  45.60000,
,,,-00.013560000000,  45.60000,
,,,-00.013540000000,  45.60000,
,,,-00.013520000000,  44.80000,
,,,-00.013500000000,  45.60000,
,,,-00.013480000000,  45.60000,
,,,-00.013460000000,  44.80000,
,,,-00.013440000000,  44.80000,
,,,-00.013420000000,  44.80000,
,,,-00.013400000000,  44.00000,
,,,-00.013380000000,  44.00000,
,,,-00.013360000000,  44.00000,
,,,-00.013340000000,  44.00000,
,,,-00.013320000000,  44.00000,
,,,-00.013300000000,  43.20000,
,,,-00.013280000000,  44.00000,
,,,-00.013260000000,  43.20000,
,,,-00.013240000000,  43.20000,
,,,-00.013220000000,  43.20000,
,,,-00.013200000000,  43.20000,
,,,-00.013180000000,  42.40000,
,,,-00.013160000000,  42.40000,
,,,-00.013140000000,  42.40000,
,,,-00.013120000000,  42.40000,
,,,-00.013100000000,  42.40000,
,,,-00.013080000000,  41.60000,
,,,-00.013060000000,  41.60000,
,,,-00.013040000000,  41.60000,
,,,-00.013020000000,  40.80000,
,,,-00.013000000000,  40.80000,
,,,-00.012980000000,  40.80000,
,,,-00.012960000000,  40.80000,
,,,-00.012940000000,  40.00000,
,,,-00.012920000000,  40.80000,
,,,-00.012900000000,  40.00000,
,,,-00.012880000000,  39.20000,
,,,-00.012860000000,  39.20000,
,,,-00.012840000000,  39.20000,
,,,-00.012820000000,  39.20000,
,,,-00.012800000000,  39.20000,
,,,-00.012780000000,  39.20000,
,,,-00.012760000000,  38.40000,
,,,-00.012740000000,  38.40000,
,,,-00.012720000000,  38.40000,
,,,-00.012700000000,  37.60000,
,,,-00.012680000000,  38.40000,
,,,-00.012660000000,  37.60000,
,,,-00.012640000000,  37.60000,
,,,-00.012620000000,  37.60000,
,,,-00.012600000000,  36.80000,
,,,-00.012580000000,  36.80000,
,,,-00.012560000000,  36.80000,
,,,-00.012540000000,  36.80000,
,,,-00.012520000000,  36.80000,
,,,-00.012500000000,  36.00000,
,,,-00.012480000000,  36.00000,
,,,-00.012460000000,  36.00000,
,,,-00.012440000000,  35.20000,
,,,-00.012420000000,  35.20000,
,,,-00.012400000000,  34.40000,
,,,-00.012380000000,  35.20000,
,,,-00.012360000000,  34.40000,
,,,-00.012340000000,  33.60000,
,,,-00.012320000000,  33.60000,
,,,-00.012300000000,  33.60000,
,,,-00.012280000000,  33.60000,
,,,-00.012260000000,  32.80000,
,,,-00.012240000000,  33.60000,
,,,-00.012220000000,  32.80000,
,,,-00.012200000000,  32.80000,
,,,-00.012180000000,  32.00000,
,,,-00.012160000000,  32.00000,
,,,-00.012140000000,  32.00000,
,,,-00.012120000000,  32.00000,
,,,-00.012100000000,  31.20000,
,,,-00.012080000000,  30.40000,
,,,-00.012060000000,  30.40000,
,,,-00.012040000000,  30.40000,
,,,-00.012020000000,  30.40000,
,,,-00.012000000000,  29.60000,
,,,-00.011980000000,  30.40000,
,,,-00.011960000000,  28.80000,
,,,-00.011940000000,  28.80000,
,,,-00.011920000000,  28.80000,
,,,-00.011900000000,  28.00000,
,,,-00.011880000000,  28.00000,
,,,-00.011860000000,  28.00000,
,,,-00.011840000000,  28.00000,
,,,-00.011820000000,  27.20000,
,,,-00.011800000000,  26.40000,
,,,-00.011780000000,  27.20000,
,,,-00.011760000000,  27.20000,
,,,-00.011740000000,  25.60000,
,,,-00.011720000000,  26.40000,
,,,-00.011700000000,  25.60000,
,,,-00.011680000000,  25.60000,
,,,-00.011660000000,  25.60000,
,,,-00.011640000000,  24.80000,
,,,-00.011620000000,  24.00000,
,,,-00.011600000000,  24.80000,
,,,-00.011580000000,  24.00000,
,,,-00.011560000000,  24.00000,
,,,-00.011540000000,  23.20000,
,,,-00.011520000000,  23.20000,
,,,-00.011500000000,  23.20000,
,,,-00.011480000000,  22.40000,
,,,-00.011460000000,  22.40000,
,,,-00.011440000000,  22.40000,
,,,-00.011420000000,  21.60000,
,,,-00.011400000000,  21.60000,
,,,-00.011380000000,  20.80000,
,,,-00.011360000000,  20.80000,
,,,-00.011340000000,  20.80000,
,,,-00.011320000000,  20.00000,
,,,-00.011300000000,  20.00000,
,,,-00.011280000000,  20.00000,
,,,-00.011260000000,  19.20000,
,,,-00.011240000000,  18.40000,
,,,-00.011220000000,  19.20000,
,,,-00.011200000000,  18.40000,
,,,-00.011180000000,  17.60000,
,,,-00.011160000000,  17.60000,
,,,-00.011140000000,  17.60000,
,,,-00.011120000000,  17.60000,
,,,-00.011100000000,  16.80000,
,,,-00.011080000000,  16.80000,
,,,-00.011060000000,  16.00000,
,,,-00.011040000000,  16.00000,
,,,-00.011020000000,  16.00000,
,,,-00.011000000000,  15.20000,
,,,-00.010980000000,  15.20000,
,,,-00.010960000000,  14.40000,
,,,-00.010940000000,  14.40000,
,,,-00.010920000000,  14.40000,
,,,-00.010900000000,  13.60000,
,,,-00.010880000000,  12.80000,
,,,-00.010860000000,  12.80000,
,,,-00.010840000000,  12.00000,
,,,-00.010820000000,  12.80000,
,,,-00.010800000000,  12.00000,
,,,-00.010780000000,  12.00000,
,,,-00.010760000000,  11.20000,
,,,-00.010740000000,  11.20000,
,,,-00.010720000000,  11.20000,
,,,-00.010700000000,  10.40000,
,,,-00.010680000000,  10.40000,
,,,-00.010660000000,   9.60000,
,,,-00.010640000000,   9.60000,
,,,-00.010620000000,   9.60000,
,,,-00.010600000000,   8.80000,
,,,-00.010580000000,   8.80000,
,,,-00.010560000000,   8.80000,
,,,-00.010540000000,   8.80000,
,,,-00.010520000000,   8.00000,
,,,-00.010500000000,   8.00000,
,,,-00.010480000000,   7.20000,
,,,-00.010460000000,   7.20000,
,,,-00.010440000000,   7.20000,
,,,-00.010420000000,   6.40000,
,,,-00.010400000000,   5.60000,
,,,-00.010380000000,   5.60000,
,,,-00.010360000000,   4.80000,
,,,-00.010340000000,   4.80000,
,,,-00.010320000000,   4.80000,
,,,-00.010300000000,   4.80000,
,,,-00.010280000000,   4.00000,
,,,-00.010260000000,   4.00000,
,,,-00.010240000000,   3.20000,
,,,-00.010220000000,   2.40000,
,,,-00.010200000000,   2.40000,
,,,-00.010180000000,   2.40000,
,,,-00.010160000000,   2.40000,
,,,-00.010140000000,   1.60000,
,,,-00.010120000000,   0.80000,
,,,-00.010100000000,   0.80000,
,,,-00.010080000000,   0.80000,
,,,-00.010060000000,   0.00000,
,,,-00.010040000000,   0.00000,
,,,-00.010020000000,  -0.80000,
,,,-00.010000000000,  -0.80000,
,,,-00.009980000000,  -0.80000,
,,,-00.009960000000,  -0.80000,
,,,-00.009940000000,  -1.60000,
,,,-00.009920000000,  -2.40000,
,,,-00.009900000000,  -3.20000,
,,,-00.009880000000,  -2.40000,
,,,-00.009860000000,  -3.20000,
,,,-00.009840000000,  -3.20000,
,,,-00.009820000000,  -4.00000,
,,,-00.009800000000,  -4.00000,
,,,-00.009780000000,  -4.80000,
,,,-00.009760000000,  -4.80000,
,,,-00.009740000000,  -4.80000,
,,,-00.009720000000,  -5.60000,
,,,-00.009700000000,  -5.60000,
,,,-00.009680000000,  -6.40000,
,,,-00.009660000000,  -6.40000,
,,,-00.009640000000,  -7.20000,
,,,-00.009620000000,  -7.20000,
,,,-00.009600000000,  -8.00000,
,,,-00.009580000000,  -8.00000,
,,,-00.009560000000,  -8.00000,
,,,-00.009540000000,  -8.80000,
,,,-00.009520000000,  -8.80000,
,,,-00.009500000000,  -8.80000,
,,,-00.009480000000,  -9.60000,
,,,-00.009460000000,  -9.60000,
,,,-00.009440000000,  -9.60000,
,,,-00.009420000000, -10.40000,
,,,-00.009400000000, -11.20000,
,,,-00.009380000000, -11.20000,
,,,-00.009360000000, -12.00000,
,,,-00.009340000000, -12.00000,
,,,-00.009320000000, -11.20000,
,,,-00.009300000000, -12.00000,
,,,-00.009280000000, -12.80000,
,,,-00.009260000000, -12.80000,
,,,-00.009240000000, -12.80000,
,,,-00.009220000000, -13.60000,
,,,-00.009200000000, -13.60000,
,,,-00.009180000000, -13.60000,
,,,-00.009160000000, -14.40000,
,,,-00.009140000000, -14.40000,
,,,-00.009120000000, -14.40000,
,,,-00.009100000000, -15.20000,
,,,-00.009080000000, -15.20000,
,,,-00.009060000000, -16.00000,
,,,-00.009040000000, -16.00000,
,,,-00.009020000000, -16.80000,
,,,-00.009000000000, -16.80000,
,,,-00.008980000000, -16.80000,
,,,-00.008960000000, -16.80000,
,,,-00.008940000000, -17.60000,
,,,-00.008920000000, -18.40000,
,,,-00.008900000000, -18.40000,
,,,-00.008880000000, -19.20000,
,,,-00.008860000000, -18.40000,
,,,-00.008840000000, -19.20000,
,,,-00.008820000000, -19.20000,
,,,-00.008800000000, -19.20000,
,,,-00.008780000000, -20.00000,
,,,-00.008760000000, -20.00000,
,,,-00.008740000000, -20.80000,
,,,-00.008720000000, -20.80000,
,,,-00.008700000000, -21.60000,
,,,-00.008680000000, -21.60000,
,,,-00.008660000000, -21.60000,
,,,-00.008640000000, -22.40000,
,,,-00.008620000000, -22.40000,
,,,-00.008600000000, -23.20000,
,,,-00.008580000000, -23.20000,
,,,-00.008560000000, -23.20000,
,,,-00.008540000000, -24.00000,
,,,-00.008520000000, -24.00000,
,,,-00.008500000000, -24.80000,
,,,-00.008480000000, -25.60000,
,,,-00.008460000000, -24.80000,
,,,-00.008440000000, -25.60000,
,,,-00.008420000000, -25.60000,
,,,-00.008400000000, -26.40000,
,,,-00.008380000000, -25.60000,
,,,-00.008360000000, -26.40000,
,,,-00.008340000000, -27.20000,
,,,-00.008320000000, -27.20000,
,,,-00.008300000000, -27.20000,
,,,-00.008280000000, -27.20000,
,,,-00.008260000000, -28.00000,
,,,-00.008240000000, -28.80000,
,,,-00.008220000000, -28.80000,
,,,-00.008200000000, -28.80000,
,,,-00.008180000000, -28.80000,
,,,-00.008160000000, -28.80000,
,,,-00.008140000000, -29.60000,
,,,-00.008120000000, -29.60000,
,,,-00.008100000000, -30.40000,
,,,-00.008080000000, -30.40000,
,,,-00.008060000000, -30.40000,
,,,-00.008040000000, -31.20000,
,,,-00.008020000000, -30.40000,
,,,-00.008000000000, -31.20000,
,,,-00.007980000000, -31.20000,
,,,-00.007960000000, -32.00000,
,,,-00.007940000000, -32.00000,
,,,-00.007920000000, -32.00000,
