files/2010/IE2003/lab/lab6/screenshots-osciloscopio/ALL0001/F0001CH2.CSV

Record Length,2.500000e+03,,  -0.008000000000, -42.40000,
Sample Interval,1.000000e-05,,  -0.007990000000, -42.40000,
Trigger Point,8.000000000000e+02,,  -0.007980000000, -42.40000,
,,,  -0.007970000000, -42.40000,
,,,  -0.007960000000, -42.40000,
,,,  -0.007950000000, -42.40000,
Source,CH2,,  -0.007940000000, -42.40000,
Vertical Units,V,,  -0.007930000000, -42.40000,
Vertical Scale,2.000000e+01,,  -0.007920000000, -42.40000,
Vertical Offset,4.800000e+00,,  -0.007910000000, -42.40000,
Horizontal Units,s,,  -0.007900000000, -42.40000,
Horizontal Scale,2.500000e-03,,  -0.007890000000, -42.40000,
Pt Fmt,Y,,  -0.007880000000, -43.20000,
Yzero,0.000000e+00,,  -0.007870000000, -42.40000,
Probe Atten,1.000000e+01,,  -0.007860000000, -42.40000,
Firmware Version,FV:v6.08,,  -0.007850000000, -43.20000,
,,,-00.007840000000, -43.20000,
,,,-00.007830000000, -43.20000,
,,,-00.007820000000, -43.20000,
,,,-00.007810000000, -42.40000,
,,,-00.007800000000, -43.20000,
,,,-00.007790000000, -42.40000,
,,,-00.007780000000, -44.00000,
,,,-00.007770000000, -43.20000,
,,,-00.007760000000, -43.20000,
,,,-00.007750000000, -43.20000,
,,,-00.007740000000, -43.20000,
,,,-00.007730000000, -44.00000,
,,,-00.007720000000, -44.00000,
,,,-00.007710000000, -43.20000,
,,,-00.007700000000, -44.00000,
,,,-00.007690000000, -43.20000,
,,,-00.007680000000, -44.00000,
,,,-00.007670000000, -44.00000,
,,,-00.007660000000, -44.00000,
,,,-00.007650000000, -44.00000,
,,,-00.007640000000, -44.00000,
,,,-00.007630000000, -44.00000,
,,,-00.007620000000, -44.00000,
,,,-00.007610000000, -44.00000,
,,,-00.007600000000, -44.00000,
,,,-00.007590000000, -44.00000,
,,,-00.007580000000, -44.00000,
,,,-00.007570000000, -44.00000,
,,,-00.007560000000, -44.00000,
,,,-00.007550000000, -44.00000,
,,,-00.007540000000, -44.80000,
,,,-00.007530000000, -44.00000,
,,,-00.007520000000, -44.80000,
,,,-00.007510000000, -44.80000,
,,,-00.007500000000, -44.80000,
,,,-00.007490000000, -44.00000,
,,,-00.007480000000, -44.80000,
,,,-00.007470000000, -44.00000,
,,,-00.007460000000, -44.80000,
,,,-00.007450000000, -44.80000,
,,,-00.007440000000, -44.80000,
,,,-00.007430000000, -44.80000,
,,,-00.007420000000, -44.80000,
,,,-00.007410000000, -44.80000,
,,,-00.007400000000, -44.80000,
,,,-00.007390000000, -44.80000,
,,,-00.007380000000, -44.80000,
,,,-00.007370000000, -44.80000,
,,,-00.007360000000, -44.80000,
,,,-00.007350000000, -44.80000,
,,,-00.007340000000, -45.60000,
,,,-00.007330000000, -44.00000,
,,,-00.007320000000, -44.80000,
,,,-00.007310000000, -45.60000,
,,,-00.007300000000, -45.60000,
,,,-00.007290000000, -44.80000,
,,,-00.007280000000, -45.60000,
,,,-00.007270000000, -45.60000,
,,,-00.007260000000, -45.60000,
,,,-00.007250000000, -44.80000,
,,,-00.007240000000, -45.60000,
,,,-00.007230000000, -45.60000,
,,,-00.007220000000, -45.60000,
,,,-00.007210000000, -45.60000,
,,,-00.007200000000, -45.60000,
,,,-00.007190000000, -45.60000,
,,,-00.007180000000, -45.60000,
,,,-00.007170000000, -45.60000,
,,,-00.007160000000, -45.60000,
,,,-00.007150000000, -45.60000,
,,,-00.007140000000, -45.60000,
,,,-00.007130000000, -45.60000,
,,,-00.007120000000, -46.40000,
,,,-00.007110000000, -45.60000,
,,,-00.007100000000, -45.60000,
,,,-00.007090000000, -45.60000,
,,,-00.007080000000, -45.60000,
,,,-00.007070000000, -45.60000,
,,,-00.007060000000, -45.60000,
,,,-00.007050000000, -45.60000,
,,,-00.007040000000, -45.60000,
,,,-00.007030000000, -45.60000,
,,,-00.007020000000, -45.60000,
,,,-00.007010000000, -45.60000,
,,,-00.007000000000, -45.60000,
,,,-00.006990000000, -45.60000,
,,,-00.006980000000, -45.60000,
,,,-00.006970000000, -45.60000,
,,,-00.006960000000, -45.60000,
,,,-00.006950000000, -45.60000,
,,,-00.006940000000, -46.40000,
,,,-00.006930000000, -45.60000,
,,,-00.006920000000, -46.40000,
,,,-00.006910000000, -45.60000,
,,,-00.006900000000, -45.60000,
,,,-00.006890000000, -45.60000,
,,,-00.006880000000, -46.40000,
,,,-00.006870000000, -45.60000,
,,,-00.006860000000, -46.40000,
,,,-00.006850000000, -46.40000,
,,,-00.006840000000, -45.60000,
,,,-00.006830000000, -46.40000,
,,,-00.006820000000, -45.60000,
,,,-00.006810000000, -45.60000,
,,,-00.006800000000, -46.40000,
,,,-00.006790000000, -45.60000,
,,,-00.006780000000, -46.40000,
,,,-00.006770000000, -46.40000,
,,,-00.006760000000, -45.60000,
,,,-00.006750000000, -45.60000,
,,,-00.006740000000, -45.60000,
,,,-00.006730000000, -46.40000,
,,,-00.006720000000, -45.60000,
,,,-00.006710000000, -46.40000,
,,,-00.006700000000, -46.40000,
,,,-00.006690000000, -46.40000,
,,,-00.006680000000, -46.40000,
,,,-00.006670000000, -46.40000,
,,,-00.006660000000, -46.40000,
,,,-00.006650000000, -46.40000,
,,,-00.006640000000, -45.60000,
,,,-00.006630000000, -45.60000,
,,,-00.006620000000, -46.40000,
,,,-00.006610000000, -45.60000,
,,,-00.006600000000, -45.60000,
,,,-00.006590000000, -45.60000,
,,,-00.006580000000, -46.40000,
,,,-00.006570000000, -46.40000,
,,,-00.006560000000, -45.60000,
,,,-00.006550000000, -46.40000,
,,,-00.006540000000, -45.60000,
,,,-00.006530000000, -45.60000,
,,,-00.006520000000, -45.60000,
,,,-00.006510000000, -46.40000,
,,,-00.006500000000, -46.40000,
,,,-00.006490000000, -46.40000,
,,,-00.006480000000, -46.40000,
,,,-00.006470000000, -46.40000,
,,,-00.006460000000, -46.40000,
,,,-00.006450000000, -46.40000,
,,,-00.006440000000, -46.40000,
,,,-00.006430000000, -46.40000,
,,,-00.006420000000, -45.60000,
,,,-00.006410000000, -46.40000,
,,,-00.006400000000, -46.40000,
,,,-00.006390000000, -46.40000,
,,,-00.006380000000, -45.60000,
,,,-00.006370000000, -45.60000,
,,,-00.006360000000, -46.40000,
,,,-00.006350000000, -45.60000,
,,,-00.006340000000, -45.60000,
,,,-00.006330000000, -45.60000,
,,,-00.006320000000, -45.60000,
,,,-00.006310000000, -46.40000,
,,,-00.006300000000, -47.20000,
,,,-00.006290000000, -45.60000,
,,,-00.006280000000, -45.60000,
,,,-00.006270000000, -45.60000,
,,,-00.006260000000, -45.60000,
,,,-00.006250000000, -46.40000,
,,,-00.006240000000, -45.60000,
,,,-00.006230000000, -45.60000,
,,,-00.006220000000, -45.60000,
,,,-00.006210000000, -45.60000,
,,,-00.006200000000, -45.60000,
,,,-00.006190000000, -46.40000,
,,,-00.006180000000, -45.60000,
,,,-00.006170000000, -45.60000,
,,,-00.006160000000, -45.60000,
,,,-00.006150000000, -45.60000,
,,,-00.006140000000, -45.60000,
,,,-00.006130000000, -45.60000,
,,,-00.006120000000, -45.60000,
,,,-00.006110000000, -45.60000,
,,,-00.006100000000, -45.60000,
,,,-00.006090000000, -45.60000,
,,,-00.006080000000, -45.60000,
,,,-00.006070000000, -45.60000,
,,,-00.006060000000, -45.60000,
,,,-00.006050000000, -45.60000,
,,,-00.006040000000, -45.60000,
,,,-00.006030000000, -45.60000,
,,,-00.006020000000, -45.60000,
,,,-00.006010000000, -45.60000,
,,,-00.006000000000, -44.80000,
,,,-00.005990000000, -45.60000,
,,,-00.005980000000, -45.60000,
,,,-00.005970000000, -45.60000,
,,,-00.005960000000, -45.60000,
,,,-00.005950000000, -45.60000,
,,,-00.005940000000, -45.60000,
,,,-00.005930000000, -44.80000,
,,,-00.005920000000, -45.60000,
,,,-00.005910000000, -44.80000,
,,,-00.005900000000, -45.60000,
,,,-00.005890000000, -45.60000,
,,,-00.005880000000, -45.60000,
,,,-00.005870000000, -45.60000,
,,,-00.005860000000, -45.60000,
,,,-00.005850000000, -45.60000,
,,,-00.005840000000, -45.60000,
,,,-00.005830000000, -44.80000,
,,,-00.005820000000, -45.60000,
,,,-00.005810000000, -44.00000,
,,,-00.005800000000, -44.80000,
,,,-00.005790000000, -44.00000,
,,,-00.005780000000, -44.80000,
,,,-00.005770000000, -44.80000,
,,,-00.005760000000, -44.80000,
,,,-00.005750000000, -44.80000,
,,,-00.005740000000, -44.80000,
,,,-00.005730000000, -44.80000,
,,,-00.005720000000, -44.80000,
,,,-00.005710000000, -44.80000,
,,,-00.005700000000, -44.00000,
,,,-00.005690000000, -44.80000,
,,,-00.005680000000, -44.80000,
,,,-00.005670000000, -44.00000,
,,,-00.005660000000, -44.80000,
,,,-00.005650000000, -44.00000,
,,,-00.005640000000, -44.00000,
,,,-00.005630000000, -44.00000,
,,,-00.005620000000, -44.00000,
,,,-00.005610000000, -44.00000,
,,,-00.005600000000, -44.00000,
,,,-00.005590000000, -44.00000,
,,,-00.005580000000, -44.00000,
,,,-00.005570000000, -44.00000,
,,,-00.005560000000, -44.00000,
,,,-00.005550000000, -44.00000,
,,,-00.005540000000, -44.00000,
,,,-00.005530000000, -44.00000,
,,,-00.005520000000, -44.00000,
,,,-00.005510000000, -44.00000,
,,,-00.005500000000, -43.20000,
,,,-00.005490000000, -44.00000,
,,,-00.005480000000, -44.00000,
,,,-00.005470000000, -43.20000,
,,,-00.005460000000, -43.20000,
,,,-00.005450000000, -43.20000,
,,,-00.005440000000, -43.20000,
,,,-00.005430000000, -43.20000,
,,,-00.005420000000, -43.20000,
,,,-00.005410000000, -43.20000,
,,,-00.005400000000, -42.40000,
,,,-00.005390000000, -43.20000,
,,,-00.005380000000, -43.20000,
,,,-00.005370000000, -42.40000,
,,,-00.005360000000, -42.40000,
,,,-00.005350000000, -42.40000,
,,,-00.005340000000, -42.40000,
,,,-00.005330000000, -42.40000,
,,,-00.005320000000, -42.40000,
,,,-00.005310000000, -42.40000,
,,,-00.005300000000, -42.40000,
,,,-00.005290000000, -42.40000,
,,,-00.005280000000, -42.40000,
,,,-00.005270000000, -42.40000,
,,,-00.005260000000, -42.40000,
,,,-00.005250000000, -42.40000,
,,,-00.005240000000, -42.40000,
,,,-00.005230000000, -42.40000,
,,,-00.005220000000, -42.40000,
,,,-00.005210000000, -42.40000,
,,,-00.005200000000, -41.60000,
,,,-00.005190000000, -42.40000,
,,,-00.005180000000, -42.40000,
,,,-00.005170000000, -42.40000,
,,,-00.005160000000, -41.60000,
,,,-00.005150000000, -41.60000,
,,,-00.005140000000, -41.60000,
,,,-00.005130000000, -41.60000,
,,,-00.005120000000, -41.60000,
,,,-00.005110000000, -40.80000,
,,,-00.005100000000, -41.60000,
,,,-00.005090000000, -40.80000,
,,,-00.005080000000, -40.80000,
,,,-00.005070000000, -40.80000,
,,,-00.005060000000, -40.80000,
,,,-00.005050000000, -41.60000,
,,,-00.005040000000, -40.80000,
,,,-00.005030000000, -40.80000,
,,,-00.005020000000, -40.80000,
,,,-00.005010000000, -40.80000,
,,,-00.005000000000, -40.80000,
,,,-00.004990000000, -40.80000,
,,,-00.004980000000, -40.00000,
,,,-00.004970000000, -40.80000,
,,,-00.004960000000, -40.80000,
,,,-00.004950000000, -40.80000,
,,,-00.004940000000, -40.80000,
,,,-00.004930000000, -40.00000,
,,,-00.004920000000, -40.00000,
,,,-00.004910000000, -40.00000,
,,,-00.004900000000, -39.20000,
,,,-00.004890000000, -40.00000,
,,,-00.004880000000, -40.00000,
,,,-00.004870000000, -39.20000,
,,,-00.004860000000, -39.20000,
,,,-00.004850000000, -39.20000,
,,,-00.004840000000, -40.00000,
,,,-00.004830000000, -39.20000,
,,,-00.004820000000, -39.20000,
,,,-00.004810000000, -39.20000,
,,,-00.004800000000, -39.20000,
,,,-00.004790000000, -39.20000,
,,,-00.004780000000, -39.20000,
,,,-00.004770000000, -39.20000,
,,,-00.004760000000, -38.40000,
,,,-00.004750000000, -39.20000,
,,,-00.004740000000, -39.20000,
,,,-00.004730000000, -38.40000,
,,,-00.004720000000, -38.40000,
,,,-00.004710000000, -38.40000,
,,,-00.004700000000, -39.20000,
,,,-00.004690000000, -38.40000,
,,,-00.004680000000, -38.40000,
,,,-00.004670000000, -38.40000,
,,,-00.004660000000, -38.40000,
,,,-00.004650000000, -37.60000,
,,,-00.004640000000, -37.60000,
,,,-00.004630000000, -38.40000,
,,,-00.004620000000, -37.60000,
,,,-00.004610000000, -37.60000,
,,,-00.004600000000, -37.60000,
,,,-00.004590000000, -37.60000,
,,,-00.004580000000, -36.80000,
,,,-00.004570000000, -37.60000,
,,,-00.004560000000, -37.60000,
,,,-00.004550000000, -36.80000,
,,,-00.004540000000, -36.80000,
,,,-00.004530000000, -36.80000,
,,,-00.004520000000, -36.80000,
,,,-00.004510000000, -36.80000,
,,,-00.004500000000, -36.00000,
,,,-00.004490000000, -36.80000,
,,,-00.004480000000, -36.80000,
,,,-00.004470000000, -36.00000,
,,,-00.004460000000, -36.80000,
,,,-00.004450000000, -36.80000,
,,,-00.004440000000, -36.00000,
,,,-00.004430000000, -36.00000,
,,,-00.004420000000, -36.00000,
,,,-00.004410000000, -36.00000,
,,,-00.004400000000, -36.00000,
,,,-00.004390000000, -36.00000,
,,,-00.004380000000, -35.20000,
,,,-00.004370000000, -36.00000,
,,,-00.004360000000, -35.20000,
,,,-00.004350000000, -35.20000,
,,,-00.004340000000, -35.20000,
,,,-00.004330000000, -35.20000,
,,,-00.004320000000, -35.20000,
,,,-00.004310000000, -35.20000,
,,,-00.004300000000, -35.20000,
,,,-00.004290000000, -34.40000,
,,,-00.004280000000, -34.40000,
,,,-00.004270000000, -34.40000,
,,,-00.004260000000, -34.40000,
,,,-00.004250000000, -34.40000,
,,,-00.004240000000, -34.40000,
,,,-00.004230000000, -34.40000,
,,,-00.004220000000, -33.60000,
,,,-00.004210000000, -34.40000,
,,,-00.004200000000, -33.60000,
,,,-00.004190000000, -32.80000,
,,,-00.004180000000, -33.60000,
,,,-00.004170000000, -33.60000,
,,,-00.004160000000, -33.60000,
,,,-00.004150000000, -33.60000,
,,,-00.004140000000, -33.60000,
,,,-00.004130000000, -32.80000,
,,,-00.004120000000, -33.60000,
,,,-00.004110000000, -33.60000,
,,,-00.004100000000, -32.80000,
,,,-00.004090000000, -33.60000,
,,,-00.004080000000, -32.00000,
,,,-00.004070000000, -32.80000,
,,,-00.004060000000, -32.00000,
,,,-00.004050000000, -32.80000,
,,,-00.004040000000, -32.00000,
,,,-00.004030000000, -32.00000,
,,,-00.004020000000, -32.80000,
,,,-00.004010000000, -32.00000,
,,,-00.004000000000, -32.00000,
,,,-00.003990000000, -32.00000,
,,,-00.003980000000, -31.20000,
,,,-00.003970000000, -32.00000,
,,,-00.003960000000, -31.20000,
,,,-00.003950000000, -31.20000,
,,,-00.003940000000, -31.20000,
,,,-00.003930000000, -31.20000,
,,,-00.003920000000, -31.20000,
,,,-00.003910000000, -31.20000,
,,,-00.003900000000, -31.20000,
,,,-00.003890000000, -31.20000,
,,,-00.003880000000, -30.40000,
,,,-00.003870000000, -30.40000,
,,,-00.003860000000, -30.40000,
,,,-00.003850000000, -30.40000,
,,,-00.003840000000, -29.60000,
,,,-00.003830000000, -30.40000,
,,,-00.003820000000, -30.40000,
,,,-00.003810000000, -30.40000,
,,,-00.003800000000, -29.60000,
,,,-00.003790000000, -29.60000,
,,,-00.003780000000, -29.60000,
,,,-00.003770000000, -29.60000,
,,,-00.003760000000, -29.60000,
,,,-00.003750000000, -28.80000,
,,,-00.003740000000, -28.80000,
,,,-00.003730000000, -28.80000,
,,,-00.003720000000, -28.80000,
,,,-00.003710000000, -28.80000,
,,,-00.003700000000, -28.80000,
,,,-00.003690000000, -28.80000,
,,,-00.003680000000, -28.00000,
,,,-00.003670000000, -28.00000,
,,,-00.003660000000, -28.00000,
,,,-00.003650000000, -28.00000,
,,,-00.003640000000, -28.00000,
,,,-00.003630000000, -28.00000,
,,,-00.003620000000, -28.00000,
,,,-00.003610000000, -27.20000,
,,,-00.003600000000, -27.20000,
,,,-00.003590000000, -27.20000,
,,,-00.003580000000, -28.00000,
,,,-00.003570000000, -27.20000,
,,,-00.003560000000, -27.20000,
,,,-00.003550000000, -27.20000,
,,,-00.003540000000, -27.20000,
,,,-00.003530000000, -26.40000,
,,,-00.003520000000, -26.40000,
,,,-00.003510000000, -26.40000,
,,,-00.003500000000, -26.40000,
,,,-00.003490000000, -26.40000,
,,,-00.003480000000, -26.40000,
,,,-00.003470000000, -25.60000,
,,,-00.003460000000, -26.40000,
,,,-00.003450000000, -25.60000,
,,,-00.003440000000, -26.40000,
,,,-00.003430000000, -25.60000,
,,,-00.003420000000, -25.60000,
,,,-00.003410000000, -25.60000,
,,,-00.003400000000, -24.80000,
,,,-00.003390000000, -24.80000,
,,,-00.003380000000, -24.80000,
,,,-00.003370000000, -24.80000,
,,,-00.003360000000, -24.80000,
,,,-00.003350000000, -24.80000,
,,,-00.003340000000, -24.80000,
,,,-00.003330000000, -24.80000,
,,,-00.003320000000, -24.00000,
,,,-00.003310000000, -23.20000,
,,,-00.003300000000, -24.00000,
,,,-00.003290000000, -23.20000,
,,,-00.003280000000, -24.00000,
,,,-00.003270000000, -24.00000,
,,,-00.003260000000, -24.00000,
,,,-00.003250000000, -23.20000,
,,,-00.003240000000, -23.20000,
,,,-00.003230000000, -23.20000,
,,,-00.003220000000, -23.20000,
,,,-00.003210000000, -22.40000,
,,,-00.003200000000, -22.40000,
,,,-00.003190000000, -23.20000,
,,,-00.003180000000, -22.40000,
,,,-00.003170000000, -22.40000,
,,,-00.003160000000, -22.40000,
,,,-00.003150000000, -22.40000,
,,,-00.003140000000, -22.40000,
,,,-00.003130000000, -22.40000,
,,,-00.003120000000, -22.40000,
,,,-00.003110000000, -21.60000,
,,,-00.003100000000, -21.60000,
,,,-00.003090000000, -21.60000,
,,,-00.003080000000, -21.60000,
,,,-00.003070000000, -20.80000,
,,,-00.003060000000, -20.80000,
,,,-00.003050000000, -20.80000,
,,,-00.003040000000, -20.80000,
,,,-00.003030000000, -20.80000,
,,,-00.003020000000, -20.80000,
,,,-00.003010000000, -20.80000,
,,,-00.003000000000, -20.80000,
,,,-00.002990000000, -20.80000,
,,,-00.002980000000, -20.00000,
,,,-00.002970000000, -20.00000,
,,,-00.002960000000, -20.00000,
,,,-00.002950000000, -20.00000,
,,,-00.002940000000, -19.20000,
,,,-00.002930000000, -19.20000,
,,,-00.002920000000, -19.20000,
,,,-00.002910000000, -19.20000,
,,,-00.002900000000, -18.40000,
,,,-00.002890000000, -19.20000,
,,,-00.002880000000, -19.20000,
,,,-00.002870000000, -19.20000,
,,,-00.002860000000, -18.40000,
,,,-00.002850000000, -18.40000,
,,,-00.002840000000, -18.40000,
,,,-00.002830000000, -18.40000,
,,,-00.002820000000, -18.40000,
,,,-00.002810000000, -18.40000,
,,,-00.002800000000, -17.60000,
,,,-00.002790000000, -17.60000,
,,,-00.002780000000, -17.60000,
,,,-00.002770000000, -16.80000,
,,,-00.002760000000, -17.60000,
,,,-00.002750000000, -16.80000,
,,,-00.002740000000, -16.80000,
,,,-00.002730000000, -16.80000,
,,,-00.002720000000, -16.80000,
,,,-00.002710000000, -16.80000,
,,,-00.002700000000, -16.00000,
,,,-00.002690000000, -16.00000,
,,,-00.002680000000, -16.00000,
,,,-00.002670000000, -16.00000,
,,,-00.002660000000, -16.00000,
,,,-00.002650000000, -16.00000,
,,,-00.002640000000, -15.20000,
,,,-00.002630000000, -15.20000,
,,,-00.002620000000, -15.20000,
,,,-00.002610000000, -15.20000,
,,,-00.002600000000, -15.20000,
,,,-00.002590000000, -15.20000,
,,,-00.002580000000, -14.40000,
,,,-00.002570000000, -14.40000,
,,,-00.002560000000, -14.40000,
,,,-00.002550000000, -14.40000,
,,,-00.002540000000, -14.40000,
,,,-00.002530000000, -13.60000,
,,,-00.002520000000, -14.40000,
,,,-00.002510000000, -14.40000,
,,,-00.002500000000, -13.60000,
,,,-00.002490000000, -13.60000,
,,,-00.002480000000, -13.60000,
,,,-00.002470000000, -13.60000,
,,,-00.002460000000, -12.80000,
,,,-00.002450000000, -12.00000,
,,,-00.002440000000, -12.80000,
,,,-00.002430000000, -12.80000,
,,,-00.002420000000, -12.80000,
,,,-00.002410000000, -12.00000,
,,,-00.002400000000, -12.00000,
,,,-00.002390000000, -12.00000,
,,,-00.002380000000, -12.00000,
,,,-00.002370000000, -12.00000,
,,,-00.002360000000, -12.00000,
,,,-00.002350000000, -11.20000,
,,,-00.002340000000, -11.20000,
,,,-00.002330000000, -11.20000,
,,,-00.002320000000, -11.20000,
,,,-00.002310000000, -11.20000,
,,,-00.002300000000, -11.20000,
,,,-00.002290000000, -11.20000,
,,,-00.002280000000, -10.40000,
,,,-00.002270000000, -10.40000,
,,,-00.002260000000, -10.40000,
,,,-00.002250000000, -10.40000,
,,,-00.002240000000, -10.40000,
,,,-00.002230000000, -10.40000,
,,,-00.002220000000, -10.40000,
,,,-00.002210000000,  -9.60000,
,,,-00.002200000000,  -9.60000,
,,,-00.002190000000,  -9.60000,
,,,-00.002180000000,  -9.60000,
,,,-00.002170000000,  -9.60000,
,,,-00.002160000000,  -8.80000,
,,,-00.002150000000,  -8.00000,
,,,-00.002140000000,  -8.80000,
,,,-00.002130000000,  -8.80000,
,,,-00.002120000000,  -8.00000,
,,,-00.002110000000,  -8.00000,
,,,-00.002100000000,  -8.00000,
,,,-00.002090000000,  -7.20000,
,,,-00.002080000000,  -8.00000,
,,,-00.002070000000,  -8.00000,
,,,-00.002060000000,  -7.20000,
,,,-00.002050000000,  -7.20000,
,,,-00.002040000000,  -7.20000,
,,,-00.002030000000,  -7.20000,
,,,-00.002020000000,  -7.20000,
,,,-00.002010000000,  -6.40000,
,,,-00.002000000000,  -6.40000,
,,,-00.001990000000,  -6.40000,
,,,-00.001980000000,  -5.60000,
,,,-00.001970000000,  -6.40000,
,,,-00.001960000000,  -6.40000,
,,,-00.001950000000,  -5.60000,
,,,-00.001940000000,  -5.60000,
,,,-00.001930000000,  -5.60000,
,,,-00.001920000000,  -5.60000,
,,,-00.001910000000,  -4.80000,
,,,-00.001900000000,  -4.80000,
,,,-00.001890000000,  -4.80000,
,,,-00.001880000000,  -4.80000,
,,,-00.001870000000,  -4.80000,
,,,-00.001860000000,  -4.80000,
