files/2010/IE2003/lab/lab6/screenshots-osciloscopio/ALL0003/F0003CH2.CSV

Record Length,2.500000e+03,,  -0.000077000000, -35.20000,
Sample Interval,1.000000e-07,,  -0.000076900000, -35.60000,
Trigger Point,7.700000000000e+02,,  -0.000076800000, -34.40000,
,,,  -0.000076700000, -34.40000,
,,,  -0.000076600000, -35.60000,
,,,  -0.000076500000, -36.00000,
Source,CH2,,  -0.000076400000, -36.00000,
Vertical Units,V,,  -0.000076300000, -35.20000,
Vertical Scale,1.000000e+01,,  -0.000076200000, -36.40000,
Vertical Offset,0.000000e+00,,  -0.000076100000, -37.20000,
Horizontal Units,s,,  -0.000076000000, -36.40000,
Horizontal Scale,2.500000e-05,,  -0.000075900000, -36.00000,
Pt Fmt,Y,,  -0.000075800000, -36.40000,
Yzero,0.000000e+00,,  -0.000075700000, -36.40000,
Probe Atten,1.000000e+01,,  -0.000075600000, -36.40000,
Firmware Version,FV:v6.08,,  -0.000075500000, -37.20000,
,,,-00.000075400000, -37.60000,
,,,-00.000075300000, -36.80000,
,,,-00.000075200000, -36.40000,
,,,-00.000075100000, -37.20000,
,,,-00.000075000000, -37.60000,
,,,-00.000074900000, -38.00000,
,,,-00.000074800000, -37.60000,
,,,-00.000074700000, -38.00000,
,,,-00.000074600000, -36.80000,
,,,-00.000074500000, -37.60000,
,,,-00.000074400000, -37.60000,
,,,-00.000074300000, -37.60000,
,,,-00.000074200000, -37.60000,
,,,-00.000074100000, -38.00000,
,,,-00.000074000000, -38.80000,
,,,-00.000073900000, -38.00000,
,,,-00.000073800000, -38.00000,
,,,-00.000073700000, -38.40000,
,,,-00.000073600000, -38.00000,
,,,-00.000073500000, -38.00000,
,,,-00.000073400000, -38.40000,
,,,-00.000073300000, -38.40000,
,,,-00.000073200000, -39.20000,
,,,-00.000073100000, -38.80000,
,,,-00.000073000000, -39.20000,
,,,-00.000072900000, -40.80000,
,,,-00.000072800000, -39.20000,
,,,-00.000072700000, -39.60000,
,,,-00.000072600000, -39.60000,
,,,-00.000072500000, -39.20000,
,,,-00.000072400000, -39.60000,
,,,-00.000072300000, -39.20000,
,,,-00.000072200000, -40.40000,
,,,-00.000072100000, -40.00000,
,,,-00.000072000000, -39.20000,
,,,-00.000071900000, -39.60000,
,,,-00.000071800000, -40.40000,
,,,-00.000071700000, -40.40000,
,,,-00.000071600000, -40.40000,
,,,-00.000071500000, -40.80000,
,,,-00.000071400000, -40.40000,
,,,-00.000071300000, -41.20000,
,,,-00.000071200000, -40.80000,
,,,-00.000071100000, -40.80000,
,,,-00.000071000000, -41.20000,
,,,-00.000070900000, -40.80000,
,,,-00.000070800000, -40.40000,
,,,-00.000070700000, -40.80000,
,,,-00.000070600000, -41.20000,
,,,-00.000070500000, -40.40000,
,,,-00.000070400000, -40.80000,
,,,-00.000070300000, -40.80000,
,,,-00.000070200000, -42.00000,
,,,-00.000070100000, -40.80000,
,,,-00.000070000000, -41.20000,
,,,-00.000069900000, -41.60000,
,,,-00.000069800000, -41.20000,
,,,-00.000069700000, -41.60000,
,,,-00.000069600000, -42.00000,
,,,-00.000069500000, -41.20000,
,,,-00.000069400000, -41.60000,
,,,-00.000069300000, -41.20000,
,,,-00.000069200000, -42.40000,
,,,-00.000069100000, -42.00000,
,,,-00.000069000000, -42.00000,
,,,-00.000068900000, -42.40000,
,,,-00.000068800000, -42.40000,
,,,-00.000068700000, -42.40000,
,,,-00.000068600000, -42.40000,
,,,-00.000068500000, -41.60000,
,,,-00.000068400000, -44.00000,
,,,-00.000068300000, -42.00000,
,,,-00.000068200000, -43.20000,
,,,-00.000068100000, -42.80000,
,,,-00.000068000000, -43.20000,
,,,-00.000067900000, -43.20000,
,,,-00.000067800000, -42.80000,
,,,-00.000067700000, -42.80000,
,,,-00.000067600000, -42.80000,
,,,-00.000067500000, -43.60000,
,,,-00.000067400000, -42.80000,
,,,-00.000067300000, -42.80000,
,,,-00.000067200000, -43.20000,
,,,-00.000067100000, -42.80000,
,,,-00.000067000000, -43.20000,
,,,-00.000066900000, -41.60000,
,,,-00.000066800000, -41.60000,
,,,-00.000066700000, -44.00000,
,,,-00.000066600000, -44.00000,
,,,-00.000066500000, -43.60000,
,,,-00.000066400000, -43.20000,
,,,-00.000066300000, -44.00000,
,,,-00.000066200000, -43.60000,
,,,-00.000066100000, -43.20000,
,,,-00.000066000000, -43.60000,
,,,-00.000065900000, -44.00000,
,,,-00.000065800000, -44.40000,
,,,-00.000065700000, -44.00000,
,,,-00.000065600000, -44.80000,
,,,-00.000065500000, -44.00000,
,,,-00.000065400000, -44.00000,
,,,-00.000065300000, -43.60000,
,,,-00.000065200000, -44.00000,
,,,-00.000065100000, -43.60000,
,,,-00.000065000000, -44.80000,
,,,-00.000064900000, -44.40000,
,,,-00.000064800000, -44.80000,
,,,-00.000064700000, -44.00000,
,,,-00.000064600000, -44.40000,
,,,-00.000064500000, -44.40000,
,,,-00.000064400000, -45.20000,
,,,-00.000064300000, -44.40000,
,,,-00.000064200000, -45.20000,
,,,-00.000064100000, -44.80000,
,,,-00.000064000000, -44.00000,
,,,-00.000063900000, -44.80000,
,,,-00.000063800000, -44.40000,
,,,-00.000063700000, -44.80000,
,,,-00.000063600000, -43.60000,
,,,-00.000063500000, -45.60000,
,,,-00.000063400000, -45.60000,
,,,-00.000063300000, -45.60000,
,,,-00.000063200000, -45.20000,
,,,-00.000063100000, -45.20000,
,,,-00.000063000000, -46.80000,
,,,-00.000062900000, -45.20000,
,,,-00.000062800000, -45.60000,
,,,-00.000062700000, -45.60000,
,,,-00.000062600000, -45.60000,
,,,-00.000062500000, -46.40000,
,,,-00.000062400000, -45.60000,
,,,-00.000062300000, -46.80000,
,,,-00.000062200000, -46.00000,
,,,-00.000062100000, -44.80000,
,,,-00.000062000000, -45.60000,
,,,-00.000061900000, -44.80000,
,,,-00.000061800000, -46.00000,
,,,-00.000061700000, -46.00000,
,,,-00.000061600000, -46.00000,
,,,-00.000061500000, -46.40000,
,,,-00.000061400000, -46.80000,
,,,-00.000061300000, -46.80000,
,,,-00.000061200000, -46.40000,
,,,-00.000061100000, -46.80000,
,,,-00.000061000000, -45.60000,
,,,-00.000060900000, -46.00000,
,,,-00.000060800000, -46.40000,
,,,-00.000060700000, -46.80000,
,,,-00.000060600000, -44.80000,
,,,-00.000060500000, -46.00000,
,,,-00.000060400000, -45.60000,
,,,-00.000060300000, -47.60000,
,,,-00.000060200000, -46.40000,
,,,-00.000060100000, -47.20000,
,,,-00.000060000000, -46.80000,
,,,-00.000059900000, -46.00000,
,,,-00.000059800000, -47.20000,
,,,-00.000059700000, -46.80000,
,,,-00.000059600000, -45.20000,
,,,-00.000059500000, -46.40000,
,,,-00.000059400000, -46.00000,
,,,-00.000059300000, -46.00000,
,,,-00.000059200000, -46.80000,
,,,-00.000059100000, -46.40000,
,,,-00.000059000000, -47.20000,
,,,-00.000058900000, -46.80000,
,,,-00.000058800000, -46.80000,
,,,-00.000058700000, -46.00000,
,,,-00.000058600000, -46.40000,
,,,-00.000058500000, -46.40000,
,,,-00.000058400000, -46.40000,
,,,-00.000058300000, -47.60000,
,,,-00.000058200000, -46.80000,
,,,-00.000058100000, -48.00000,
,,,-00.000058000000, -48.40000,
,,,-00.000057900000, -47.20000,
,,,-00.000057800000, -46.40000,
,,,-00.000057700000, -46.80000,
,,,-00.000057600000, -48.00000,
,,,-00.000057500000, -47.60000,
,,,-00.000057400000, -46.80000,
,,,-00.000057300000, -46.40000,
,,,-00.000057200000, -46.00000,
,,,-00.000057100000, -48.00000,
,,,-00.000057000000, -44.80000,
,,,-00.000056900000, -44.80000,
,,,-00.000056800000, -47.60000,
,,,-00.000056700000, -47.60000,
,,,-00.000056600000, -47.60000,
,,,-00.000056500000, -46.40000,
,,,-00.000056400000, -47.60000,
,,,-00.000056300000, -47.20000,
,,,-00.000056200000, -47.20000,
,,,-00.000056100000, -46.40000,
,,,-00.000056000000, -46.80000,
,,,-00.000055900000, -47.60000,
,,,-00.000055800000, -47.20000,
,,,-00.000055700000, -47.60000,
,,,-00.000055600000, -47.20000,
,,,-00.000055500000, -47.60000,
,,,-00.000055400000, -46.40000,
,,,-00.000055300000, -46.80000,
,,,-00.000055200000, -47.20000,
,,,-00.000055100000, -47.20000,
,,,-00.000055000000, -47.20000,
,,,-00.000054900000, -47.20000,
,,,-00.000054800000, -46.80000,
,,,-00.000054700000, -47.60000,
,,,-00.000054600000, -46.80000,
,,,-00.000054500000, -48.00000,
,,,-00.000054400000, -47.60000,
,,,-00.000054300000, -48.00000,
,,,-00.000054200000, -47.60000,
,,,-00.000054100000, -47.60000,
,,,-00.000054000000, -47.20000,
,,,-00.000053900000, -46.80000,
,,,-00.000053800000, -47.20000,
,,,-00.000053700000, -46.00000,
,,,-00.000053600000, -47.20000,
,,,-00.000053500000, -48.00000,
,,,-00.000053400000, -47.60000,
,,,-00.000053300000, -48.00000,
,,,-00.000053200000, -47.20000,
,,,-00.000053100000, -48.40000,
,,,-00.000053000000, -46.80000,
,,,-00.000052900000, -48.00000,
,,,-00.000052800000, -48.00000,
,,,-00.000052700000, -47.20000,
,,,-00.000052600000, -48.40000,
,,,-00.000052500000, -47.60000,
,,,-00.000052400000, -48.80000,
,,,-00.000052300000, -48.40000,
,,,-00.000052200000, -47.20000,
,,,-00.000052100000, -46.80000,
,,,-00.000052000000, -46.80000,
,,,-00.000051900000, -47.60000,
,,,-00.000051800000, -47.20000,
,,,-00.000051700000, -47.60000,
,,,-00.000051600000, -47.60000,
,,,-00.000051500000, -48.80000,
,,,-00.000051400000, -48.00000,
,,,-00.000051300000, -47.20000,
,,,-00.000051200000, -47.60000,
,,,-00.000051100000, -47.20000,
,,,-00.000051000000, -47.20000,
,,,-00.000050900000, -47.60000,
,,,-00.000050800000, -47.60000,
,,,-00.000050700000, -46.40000,
,,,-00.000050600000, -46.00000,
,,,-00.000050500000, -46.80000,
,,,-00.000050400000, -48.40000,
,,,-00.000050300000, -46.80000,
,,,-00.000050200000, -48.00000,
,,,-00.000050100000, -48.00000,
,,,-00.000050000000, -47.20000,
,,,-00.000049900000, -47.60000,
,,,-00.000049800000, -47.60000,
,,,-00.000049700000, -46.00000,
,,,-00.000049600000, -47.20000,
,,,-00.000049500000, -46.00000,
,,,-00.000049400000, -47.20000,
,,,-00.000049300000, -46.80000,
,,,-00.000049200000, -47.20000,
,,,-00.000049100000, -47.20000,
,,,-00.000049000000, -47.60000,
,,,-00.000048900000, -46.80000,
,,,-00.000048800000, -46.00000,
,,,-00.000048700000, -46.40000,
,,,-00.000048600000, -47.60000,
,,,-00.000048500000, -46.40000,
,,,-00.000048400000, -47.20000,
,,,-00.000048300000, -46.80000,
,,,-00.000048200000, -46.80000,
,,,-00.000048100000, -48.40000,
,,,-00.000048000000, -47.60000,
,,,-00.000047900000, -45.60000,
,,,-00.000047800000, -46.40000,
,,,-00.000047700000, -47.20000,
,,,-00.000047600000, -47.20000,
,,,-00.000047500000, -46.40000,
,,,-00.000047400000, -46.00000,
,,,-00.000047300000, -45.60000,
,,,-00.000047200000, -46.80000,
,,,-00.000047100000, -44.80000,
,,,-00.000047000000, -44.80000,
,,,-00.000046900000, -46.80000,
,,,-00.000046800000, -46.80000,
,,,-00.000046700000, -46.80000,
,,,-00.000046600000, -45.60000,
,,,-00.000046500000, -47.20000,
,,,-00.000046400000, -46.40000,
,,,-00.000046300000, -46.00000,
,,,-00.000046200000, -46.00000,
,,,-00.000046100000, -46.40000,
,,,-00.000046000000, -46.40000,
,,,-00.000045900000, -46.80000,
,,,-00.000045800000, -46.40000,
,,,-00.000045700000, -46.40000,
,,,-00.000045600000, -46.00000,
,,,-00.000045500000, -45.20000,
,,,-00.000045400000, -45.60000,
,,,-00.000045300000, -45.60000,
,,,-00.000045200000, -46.80000,
,,,-00.000045100000, -46.40000,
,,,-00.000045000000, -46.00000,
,,,-00.000044900000, -46.00000,
,,,-00.000044800000, -46.00000,
,,,-00.000044700000, -45.20000,
,,,-00.000044600000, -46.40000,
,,,-00.000044500000, -45.20000,
,,,-00.000044400000, -46.00000,
,,,-00.000044300000, -46.00000,
,,,-00.000044200000, -44.80000,
,,,-00.000044100000, -45.20000,
,,,-00.000044000000, -44.80000,
,,,-00.000043900000, -45.20000,
,,,-00.000043800000, -44.00000,
,,,-00.000043700000, -46.00000,
,,,-00.000043600000, -45.60000,
,,,-00.000043500000, -45.20000,
,,,-00.000043400000, -45.60000,
,,,-00.000043300000, -44.80000,
,,,-00.000043200000, -46.80000,
,,,-00.000043100000, -44.40000,
,,,-00.000043000000, -45.20000,
,,,-00.000042900000, -45.60000,
,,,-00.000042800000, -44.80000,
,,,-00.000042700000, -45.60000,
,,,-00.000042600000, -45.60000,
,,,-00.000042500000, -46.00000,
,,,-00.000042400000, -45.20000,
,,,-00.000042300000, -44.40000,
,,,-00.000042200000, -44.80000,
,,,-00.000042100000, -44.40000,
,,,-00.000042000000, -45.20000,
,,,-00.000041900000, -44.40000,
,,,-00.000041800000, -45.20000,
,,,-00.000041700000, -44.80000,
,,,-00.000041600000, -45.20000,
,,,-00.000041500000, -45.20000,
,,,-00.000041400000, -44.40000,
,,,-00.000041300000, -44.80000,
,,,-00.000041200000, -44.00000,
,,,-00.000041100000, -44.40000,
,,,-00.000041000000, -44.00000,
,,,-00.000040900000, -44.40000,
,,,-00.000040800000, -43.20000,
,,,-00.000040700000, -43.20000,
,,,-00.000040600000, -44.00000,
,,,-00.000040500000, -44.80000,
,,,-00.000040400000, -44.00000,
,,,-00.000040300000, -44.00000,
,,,-00.000040200000, -44.00000,
,,,-00.000040100000, -43.60000,
,,,-00.000040000000, -44.40000,
,,,-00.000039900000, -44.40000,
,,,-00.000039800000, -42.80000,
,,,-00.000039700000, -43.20000,
,,,-00.000039600000, -42.80000,
,,,-00.000039500000, -44.00000,
,,,-00.000039400000, -42.80000,
,,,-00.000039300000, -42.80000,
,,,-00.000039200000, -43.20000,
,,,-00.000039100000, -42.80000,
,,,-00.000039000000, -43.20000,
,,,-00.000038900000, -42.80000,
,,,-00.000038800000, -42.80000,
,,,-00.000038700000, -43.60000,
,,,-00.000038600000, -42.80000,
,,,-00.000038500000, -43.20000,
,,,-00.000038400000, -42.80000,
,,,-00.000038300000, -43.20000,
,,,-00.000038200000, -44.00000,
,,,-00.000038100000, -43.20000,
,,,-00.000038000000, -42.00000,
,,,-00.000037900000, -42.40000,
,,,-00.000037800000, -42.80000,
,,,-00.000037700000, -42.80000,
,,,-00.000037600000, -42.00000,
,,,-00.000037500000, -42.40000,
,,,-00.000037400000, -41.60000,
,,,-00.000037300000, -42.40000,
,,,-00.000037200000, -40.80000,
,,,-00.000037100000, -40.00000,
,,,-00.000037000000, -42.00000,
,,,-00.000036900000, -42.00000,
,,,-00.000036800000, -41.60000,
,,,-00.000036700000, -40.80000,
,,,-00.000036600000, -42.00000,
,,,-00.000036500000, -42.40000,
,,,-00.000036400000, -41.60000,
,,,-00.000036300000, -41.20000,
,,,-00.000036200000, -41.20000,
,,,-00.000036100000, -41.60000,
,,,-00.000036000000, -41.20000,
,,,-00.000035900000, -41.60000,
,,,-00.000035800000, -40.80000,
,,,-00.000035700000, -40.80000,
,,,-00.000035600000, -40.40000,
,,,-00.000035500000, -40.00000,
,,,-00.000035400000, -40.40000,
,,,-00.000035300000, -41.20000,
,,,-00.000035200000, -40.40000,
,,,-00.000035100000, -41.20000,
,,,-00.000035000000, -39.60000,
,,,-00.000034900000, -40.40000,
,,,-00.000034800000, -40.00000,
,,,-00.000034700000, -40.40000,
,,,-00.000034600000, -40.00000,
,,,-00.000034500000, -40.40000,
,,,-00.000034400000, -39.60000,
,,,-00.000034300000, -39.60000,
,,,-00.000034200000, -39.20000,
,,,-00.000034100000, -39.20000,
,,,-00.000034000000, -39.60000,
,,,-00.000033900000, -38.80000,
,,,-00.000033800000, -39.60000,
,,,-00.000033700000, -40.00000,
,,,-00.000033600000, -39.60000,
,,,-00.000033500000, -39.60000,
,,,-00.000033400000, -38.80000,
,,,-00.000033300000, -40.40000,
,,,-00.000033200000, -38.80000,
,,,-00.000033100000, -39.20000,
,,,-00.000033000000, -39.20000,
,,,-00.000032900000, -38.80000,
,,,-00.000032800000, -39.20000,
,,,-00.000032700000, -38.80000,
,,,-00.000032600000, -39.20000,
,,,-00.000032500000, -38.80000,
,,,-00.000032400000, -38.40000,
,,,-00.000032300000, -38.00000,
,,,-00.000032200000, -38.40000,
,,,-00.000032100000, -38.80000,
,,,-00.000032000000, -38.00000,
,,,-00.000031900000, -37.60000,
,,,-00.000031800000, -38.00000,
,,,-00.000031700000, -38.40000,
,,,-00.000031600000, -38.00000,
,,,-00.000031500000, -38.00000,
,,,-00.000031400000, -37.60000,
,,,-00.000031300000, -37.60000,
,,,-00.000031200000, -37.20000,
,,,-00.000031100000, -37.20000,
,,,-00.000031000000, -37.20000,
,,,-00.000030900000, -36.40000,
,,,-00.000030800000, -37.20000,
,,,-00.000030700000, -36.40000,
,,,-00.000030600000, -36.80000,
,,,-00.000030500000, -36.00000,
,,,-00.000030400000, -37.20000,
,,,-00.000030300000, -36.00000,
,,,-00.000030200000, -36.40000,
,,,-00.000030100000, -36.40000,
,,,-00.000030000000, -36.40000,
,,,-00.000029900000, -35.60000,
,,,-00.000029800000, -35.60000,
,,,-00.000029700000, -35.20000,
,,,-00.000029600000, -36.00000,
,,,-00.000029500000, -36.00000,
,,,-00.000029400000, -36.00000,
,,,-00.000029300000, -35.60000,
,,,-00.000029200000, -35.20000,
,,,-00.000029100000, -35.60000,
,,,-00.000029000000, -35.60000,
,,,-00.000028900000, -34.80000,
,,,-00.000028800000, -35.60000,
,,,-00.000028700000, -34.40000,
,,,-00.000028600000, -34.80000,
,,,-00.000028500000, -34.40000,
,,,-00.000028400000, -35.60000,
,,,-00.000028300000, -35.60000,
,,,-00.000028200000, -34.80000,
,,,-00.000028100000, -34.00000,
,,,-00.000028000000, -34.00000,
,,,-00.000027900000, -34.00000,
,,,-00.000027800000, -33.60000,
,,,-00.000027700000, -34.40000,
,,,-00.000027600000, -34.00000,
,,,-00.000027500000, -33.20000,
,,,-00.000027400000, -33.60000,
,,,-00.000027300000, -32.80000,
,,,-00.000027200000, -32.40000,
,,,-00.000027100000, -33.20000,
,,,-00.000027000000, -33.20000,
,,,-00.000026900000, -32.80000,
,,,-00.000026800000, -32.40000,
,,,-00.000026700000, -33.20000,
,,,-00.000026600000, -32.80000,
,,,-00.000026500000, -32.80000,
,,,-00.000026400000, -32.40000,
,,,-00.000026300000, -32.40000,
,,,-00.000026200000, -32.40000,
,,,-00.000026100000, -32.00000,
,,,-00.000026000000, -32.40000,
,,,-00.000025900000, -32.40000,
,,,-00.000025800000, -32.00000,
,,,-00.000025700000, -31.60000,
,,,-00.000025600000, -31.60000,
,,,-00.000025500000, -31.60000,
,,,-00.000025400000, -31.60000,
,,,-00.000025300000, -31.20000,
,,,-00.000025200000, -31.20000,
,,,-00.000025100000, -30.80000,
,,,-00.000025000000, -31.20000,
,,,-00.000024900000, -30.40000,
,,,-00.000024800000, -31.20000,
,,,-00.000024700000, -30.40000,
,,,-00.000024600000, -30.80000,
,,,-00.000024500000, -30.80000,
,,,-00.000024400000, -30.00000,
,,,-00.000024300000, -30.00000,
,,,-00.000024200000, -30.00000,
,,,-00.000024100000, -30.40000,
,,,-00.000024000000, -29.60000,
,,,-00.000023900000, -30.40000,
,,,-00.000023800000, -29.20000,
,,,-00.000023700000, -29.60000,
,,,-00.000023600000, -29.60000,
,,,-00.000023500000, -29.20000,
,,,-00.000023400000, -30.00000,
,,,-00.000023300000, -28.80000,
,,,-00.000023200000, -28.80000,
,,,-00.000023100000, -29.20000,
,,,-00.000023000000, -28.80000,
,,,-00.000022900000, -28.40000,
,,,-00.000022800000, -28.00000,
,,,-00.000022700000, -28.40000,
,,,-00.000022600000, -28.40000,
,,,-00.000022500000, -27.60000,
,,,-00.000022400000, -28.40000,
,,,-00.000022300000, -27.60000,
,,,-00.000022200000, -28.40000,
,,,-00.000022100000, -27.60000,
,,,-00.000022000000, -27.60000,
,,,-00.000021900000, -27.20000,
,,,-00.000021800000, -28.00000,
,,,-00.000021700000, -27.20000,
,,,-00.000021600000, -26.80000,
,,,-00.000021500000, -27.20000,
,,,-00.000021400000, -26.80000,
,,,-00.000021300000, -26.40000,
,,,-00.000021200000, -26.40000,
,,,-00.000021100000, -26.40000,
,,,-00.000021000000, -26.00000,
,,,-00.000020900000, -26.00000,
,,,-00.000020800000, -26.00000,
,,,-00.000020700000, -26.40000,
,,,-00.000020600000, -26.00000,
,,,-00.000020500000, -26.00000,
,,,-00.000020400000, -25.60000,
,,,-00.000020300000, -25.20000,
,,,-00.000020200000, -26.00000,
,,,-00.000020100000, -25.60000,
,,,-00.000020000000, -24.40000,
,,,-00.000019900000, -24.80000,
,,,-00.000019800000, -24.80000,
,,,-00.000019700000, -24.80000,
,,,-00.000019600000, -24.40000,
,,,-00.000019500000, -24.40000,
,,,-00.000019400000, -24.40000,
,,,-00.000019300000, -24.40000,
,,,-00.000019200000, -24.40000,
,,,-00.000019100000, -24.00000,
,,,-00.000019000000, -23.60000,
,,,-00.000018900000, -24.00000,
,,,-00.000018800000, -23.20000,
,,,-00.000018700000, -23.20000,
,,,-00.000018600000, -23.20000,
,,,-00.000018500000, -23.60000,
,,,-00.000018400000, -23.60000,
,,,-00.000018300000, -23.20000,
,,,-00.000018200000, -22.80000,
,,,-00.000018100000, -22.80000,
,,,-00.000018000000, -22.40000,
,,,-00.000017900000, -22.40000,
,,,-00.000017800000, -22.40000,
,,,-00.000017700000, -22.40000,
,,,-00.000017600000, -22.00000,
,,,-00.000017500000, -21.60000,
,,,-00.000017400000, -21.20000,
,,,-00.000017300000, -21.20000,
,,,-00.000017200000, -21.60000,
,,,-00.000017100000, -21.60000,
,,,-00.000017000000, -21.20000,
,,,-00.000016900000, -20.80000,
,,,-00.000016800000, -21.20000,
,,,-00.000016700000, -21.20000,
,,,-00.000016600000, -20.80000,
,,,-00.000016500000, -20.40000,
,,,-00.000016400000, -20.00000,
,,,-00.000016300000, -20.40000,
,,,-00.000016200000, -20.00000,
,,,-00.000016100000, -20.00000,
,,,-00.000016000000, -20.00000,
,,,-00.000015900000, -19.60000,
,,,-00.000015800000, -19.20000,
,,,-00.000015700000, -19.20000,
,,,-00.000015600000, -19.60000,
