files/2010/IE2003/lab/lab6/screenshots-osciloscopio/ALL0002/F0002CH1.CSV

Record Length,2.500000e+03,,  -0.000770000000, -36.00000,
Sample Interval,1.000000e-06,,  -0.000769000000, -36.00000,
Trigger Point,7.700000000000e+02,,  -0.000768000000, -36.00000,
,,,  -0.000767000000, -36.00000,
,,,  -0.000766000000, -36.80000,
,,,  -0.000765000000, -36.80000,
Source,CH1,,  -0.000764000000, -36.80000,
Vertical Units,V,,  -0.000763000000, -36.80000,
Vertical Scale,2.000000e+01,,  -0.000762000000, -36.80000,
Vertical Offset,3.200000e+00,,  -0.000761000000, -36.80000,
Horizontal Units,s,,  -0.000760000000, -36.80000,
Horizontal Scale,2.500000e-04,,  -0.000759000000, -37.60000,
Pt Fmt,Y,,  -0.000758000000, -37.60000,
Yzero,0.000000e+00,,  -0.000757000000, -37.60000,
Probe Atten,1.000000e+01,,  -0.000756000000, -37.60000,
Firmware Version,FV:v6.08,,  -0.000755000000, -37.60000,
,,,-00.000754000000, -38.40000,
,,,-00.000753000000, -38.40000,
,,,-00.000752000000, -38.40000,
,,,-00.000751000000, -37.60000,
,,,-00.000750000000, -38.40000,
,,,-00.000749000000, -38.40000,
,,,-00.000748000000, -38.40000,
,,,-00.000747000000, -38.40000,
,,,-00.000746000000, -39.20000,
,,,-00.000745000000, -39.20000,
,,,-00.000744000000, -39.20000,
,,,-00.000743000000, -38.40000,
,,,-00.000742000000, -38.40000,
,,,-00.000741000000, -39.20000,
,,,-00.000740000000, -39.20000,
,,,-00.000739000000, -39.20000,
,,,-00.000738000000, -39.20000,
,,,-00.000737000000, -39.20000,
,,,-00.000736000000, -39.20000,
,,,-00.000735000000, -40.00000,
,,,-00.000734000000, -39.20000,
,,,-00.000733000000, -40.00000,
,,,-00.000732000000, -40.00000,
,,,-00.000731000000, -40.00000,
,,,-00.000730000000, -40.00000,
,,,-00.000729000000, -40.00000,
,,,-00.000728000000, -40.00000,
,,,-00.000727000000, -40.80000,
,,,-00.000726000000, -40.80000,
,,,-00.000725000000, -40.80000,
,,,-00.000724000000, -40.80000,
,,,-00.000723000000, -40.80000,
,,,-00.000722000000, -40.80000,
,,,-00.000721000000, -40.80000,
,,,-00.000720000000, -41.60000,
,,,-00.000719000000, -40.80000,
,,,-00.000718000000, -41.60000,
,,,-00.000717000000, -41.60000,
,,,-00.000716000000, -41.60000,
,,,-00.000715000000, -41.60000,
,,,-00.000714000000, -41.60000,
,,,-00.000713000000, -41.60000,
,,,-00.000712000000, -42.40000,
,,,-00.000711000000, -41.60000,
,,,-00.000710000000, -41.60000,
,,,-00.000709000000, -41.60000,
,,,-00.000708000000, -42.40000,
,,,-00.000707000000, -42.40000,
,,,-00.000706000000, -41.60000,
,,,-00.000705000000, -41.60000,
,,,-00.000704000000, -42.40000,
,,,-00.000703000000, -42.40000,
,,,-00.000702000000, -42.40000,
,,,-00.000701000000, -42.40000,
,,,-00.000700000000, -42.40000,
,,,-00.000699000000, -42.40000,
,,,-00.000698000000, -42.40000,
,,,-00.000697000000, -42.40000,
,,,-00.000696000000, -42.40000,
,,,-00.000695000000, -42.40000,
,,,-00.000694000000, -43.20000,
,,,-00.000693000000, -43.20000,
,,,-00.000692000000, -43.20000,
,,,-00.000691000000, -43.20000,
,,,-00.000690000000, -43.20000,
,,,-00.000689000000, -43.20000,
,,,-00.000688000000, -43.20000,
,,,-00.000687000000, -44.00000,
,,,-00.000686000000, -43.20000,
,,,-00.000685000000, -43.20000,
,,,-00.000684000000, -44.00000,
,,,-00.000683000000, -44.00000,
,,,-00.000682000000, -44.00000,
,,,-00.000681000000, -43.20000,
,,,-00.000680000000, -44.00000,
,,,-00.000679000000, -44.00000,
,,,-00.000678000000, -44.00000,
,,,-00.000677000000, -44.00000,
,,,-00.000676000000, -44.00000,
,,,-00.000675000000, -44.00000,
,,,-00.000674000000, -44.80000,
,,,-00.000673000000, -44.00000,
,,,-00.000672000000, -44.00000,
,,,-00.000671000000, -44.80000,
,,,-00.000670000000, -44.00000,
,,,-00.000669000000, -44.80000,
,,,-00.000668000000, -44.00000,
,,,-00.000667000000, -44.80000,
,,,-00.000666000000, -44.80000,
,,,-00.000665000000, -44.80000,
,,,-00.000664000000, -44.80000,
,,,-00.000663000000, -44.80000,
,,,-00.000662000000, -44.80000,
,,,-00.000661000000, -44.80000,
,,,-00.000660000000, -44.80000,
,,,-00.000659000000, -44.80000,
,,,-00.000658000000, -44.80000,
,,,-00.000657000000, -44.80000,
,,,-00.000656000000, -45.60000,
,,,-00.000655000000, -45.60000,
,,,-00.000654000000, -44.80000,
,,,-00.000653000000, -44.80000,
,,,-00.000652000000, -45.60000,
,,,-00.000651000000, -44.80000,
,,,-00.000650000000, -45.60000,
,,,-00.000649000000, -45.60000,
,,,-00.000648000000, -45.60000,
,,,-00.000647000000, -45.60000,
,,,-00.000646000000, -46.40000,
,,,-00.000645000000, -46.40000,
,,,-00.000644000000, -45.60000,
,,,-00.000643000000, -45.60000,
,,,-00.000642000000, -46.40000,
,,,-00.000641000000, -46.40000,
,,,-00.000640000000, -46.40000,
,,,-00.000639000000, -46.40000,
,,,-00.000638000000, -46.40000,
,,,-00.000637000000, -46.40000,
,,,-00.000636000000, -46.40000,
,,,-00.000635000000, -46.40000,
,,,-00.000634000000, -46.40000,
,,,-00.000633000000, -46.40000,
,,,-00.000632000000, -46.40000,
,,,-00.000631000000, -46.40000,
,,,-00.000630000000, -46.40000,
,,,-00.000629000000, -46.40000,
,,,-00.000628000000, -47.20000,
,,,-00.000627000000, -47.20000,
,,,-00.000626000000, -47.20000,
,,,-00.000625000000, -47.20000,
,,,-00.000624000000, -47.20000,
,,,-00.000623000000, -46.40000,
,,,-00.000622000000, -47.20000,
,,,-00.000621000000, -47.20000,
,,,-00.000620000000, -47.20000,
,,,-00.000619000000, -47.20000,
,,,-00.000618000000, -47.20000,
,,,-00.000617000000, -47.20000,
,,,-00.000616000000, -47.20000,
,,,-00.000615000000, -47.20000,
,,,-00.000614000000, -47.20000,
,,,-00.000613000000, -47.20000,
,,,-00.000612000000, -48.00000,
,,,-00.000611000000, -48.00000,
,,,-00.000610000000, -47.20000,
,,,-00.000609000000, -47.20000,
,,,-00.000608000000, -48.00000,
,,,-00.000607000000, -48.00000,
,,,-00.000606000000, -48.00000,
,,,-00.000605000000, -48.00000,
,,,-00.000604000000, -48.00000,
,,,-00.000603000000, -48.00000,
,,,-00.000602000000, -48.00000,
,,,-00.000601000000, -48.00000,
,,,-00.000600000000, -48.00000,
,,,-00.000599000000, -48.00000,
,,,-00.000598000000, -48.00000,
,,,-00.000597000000, -48.00000,
,,,-00.000596000000, -48.00000,
,,,-00.000595000000, -48.00000,
,,,-00.000594000000, -48.00000,
,,,-00.000593000000, -48.00000,
,,,-00.000592000000, -48.00000,
,,,-00.000591000000, -48.00000,
,,,-00.000590000000, -48.00000,
,,,-00.000589000000, -48.00000,
,,,-00.000588000000, -48.00000,
,,,-00.000587000000, -48.00000,
,,,-00.000586000000, -48.00000,
,,,-00.000585000000, -48.80000,
,,,-00.000584000000, -48.80000,
,,,-00.000583000000, -48.00000,
,,,-00.000582000000, -48.00000,
,,,-00.000581000000, -48.00000,
,,,-00.000580000000, -48.00000,
,,,-00.000579000000, -48.00000,
,,,-00.000578000000, -48.00000,
,,,-00.000577000000, -48.00000,
,,,-00.000576000000, -48.00000,
,,,-00.000575000000, -48.80000,
,,,-00.000574000000, -48.00000,
,,,-00.000573000000, -48.80000,
,,,-00.000572000000, -48.80000,
,,,-00.000571000000, -48.80000,
,,,-00.000570000000, -48.80000,
,,,-00.000569000000, -48.00000,
,,,-00.000568000000, -48.80000,
,,,-00.000567000000, -48.80000,
,,,-00.000566000000, -48.80000,
,,,-00.000565000000, -48.80000,
,,,-00.000564000000, -48.80000,
,,,-00.000563000000, -48.80000,
,,,-00.000562000000, -48.80000,
,,,-00.000561000000, -48.80000,
,,,-00.000560000000, -48.80000,
,,,-00.000559000000, -48.80000,
,,,-00.000558000000, -48.80000,
,,,-00.000557000000, -48.80000,
,,,-00.000556000000, -48.80000,
,,,-00.000555000000, -48.80000,
,,,-00.000554000000, -49.60000,
,,,-00.000553000000, -49.60000,
,,,-00.000552000000, -49.60000,
,,,-00.000551000000, -48.80000,
,,,-00.000550000000, -48.80000,
,,,-00.000549000000, -48.80000,
,,,-00.000548000000, -48.80000,
,,,-00.000547000000, -49.60000,
,,,-00.000546000000, -48.80000,
,,,-00.000545000000, -49.60000,
,,,-00.000544000000, -48.80000,
,,,-00.000543000000, -49.60000,
,,,-00.000542000000, -49.60000,
,,,-00.000541000000, -49.60000,
,,,-00.000540000000, -48.80000,
,,,-00.000539000000, -48.80000,
,,,-00.000538000000, -48.80000,
,,,-00.000537000000, -49.60000,
,,,-00.000536000000, -49.60000,
,,,-00.000535000000, -48.80000,
,,,-00.000534000000, -48.80000,
,,,-00.000533000000, -49.60000,
,,,-00.000532000000, -48.80000,
,,,-00.000531000000, -49.60000,
,,,-00.000530000000, -49.60000,
,,,-00.000529000000, -49.60000,
,,,-00.000528000000, -49.60000,
,,,-00.000527000000, -49.60000,
,,,-00.000526000000, -48.80000,
,,,-00.000525000000, -49.60000,
,,,-00.000524000000, -49.60000,
,,,-00.000523000000, -48.80000,
,,,-00.000522000000, -49.60000,
,,,-00.000521000000, -49.60000,
,,,-00.000520000000, -49.60000,
,,,-00.000519000000, -49.60000,
,,,-00.000518000000, -49.60000,
,,,-00.000517000000, -48.80000,
,,,-00.000516000000, -48.80000,
,,,-00.000515000000, -48.80000,
,,,-00.000514000000, -49.60000,
,,,-00.000513000000, -48.80000,
,,,-00.000512000000, -48.80000,
,,,-00.000511000000, -49.60000,
,,,-00.000510000000, -48.80000,
,,,-00.000509000000, -48.80000,
,,,-00.000508000000, -48.80000,
,,,-00.000507000000, -48.80000,
,,,-00.000506000000, -49.60000,
,,,-00.000505000000, -48.80000,
,,,-00.000504000000, -48.80000,
,,,-00.000503000000, -48.80000,
,,,-00.000502000000, -48.80000,
,,,-00.000501000000, -48.80000,
,,,-00.000500000000, -48.80000,
,,,-00.000499000000, -48.80000,
,,,-00.000498000000, -48.80000,
,,,-00.000497000000, -48.80000,
,,,-00.000496000000, -48.80000,
,,,-00.000495000000, -48.80000,
,,,-00.000494000000, -48.80000,
,,,-00.000493000000, -48.00000,
,,,-00.000492000000, -48.80000,
,,,-00.000491000000, -48.80000,
,,,-00.000490000000, -48.80000,
,,,-00.000489000000, -48.80000,
,,,-00.000488000000, -48.80000,
,,,-00.000487000000, -48.80000,
,,,-00.000486000000, -48.80000,
,,,-00.000485000000, -48.80000,
,,,-00.000484000000, -48.00000,
,,,-00.000483000000, -48.00000,
,,,-00.000482000000, -48.80000,
,,,-00.000481000000, -48.80000,
,,,-00.000480000000, -48.00000,
,,,-00.000479000000, -48.80000,
,,,-00.000478000000, -48.00000,
,,,-00.000477000000, -48.80000,
,,,-00.000476000000, -48.00000,
,,,-00.000475000000, -48.80000,
,,,-00.000474000000, -48.00000,
,,,-00.000473000000, -48.00000,
,,,-00.000472000000, -48.80000,
,,,-00.000471000000, -48.00000,
,,,-00.000470000000, -48.00000,
,,,-00.000469000000, -48.00000,
,,,-00.000468000000, -48.80000,
,,,-00.000467000000, -48.80000,
,,,-00.000466000000, -48.00000,
,,,-00.000465000000, -48.00000,
,,,-00.000464000000, -48.00000,
,,,-00.000463000000, -48.00000,
,,,-00.000462000000, -48.00000,
,,,-00.000461000000, -48.00000,
,,,-00.000460000000, -48.00000,
,,,-00.000459000000, -48.00000,
,,,-00.000458000000, -48.00000,
,,,-00.000457000000, -48.00000,
,,,-00.000456000000, -48.00000,
,,,-00.000455000000, -48.00000,
,,,-00.000454000000, -48.00000,
,,,-00.000453000000, -48.00000,
,,,-00.000452000000, -48.00000,
,,,-00.000451000000, -48.00000,
,,,-00.000450000000, -48.00000,
,,,-00.000449000000, -47.20000,
,,,-00.000448000000, -47.20000,
,,,-00.000447000000, -48.00000,
,,,-00.000446000000, -47.20000,
,,,-00.000445000000, -47.20000,
,,,-00.000444000000, -47.20000,
,,,-00.000443000000, -47.20000,
,,,-00.000442000000, -47.20000,
,,,-00.000441000000, -46.40000,
,,,-00.000440000000, -47.20000,
,,,-00.000439000000, -47.20000,
,,,-00.000438000000, -47.20000,
,,,-00.000437000000, -47.20000,
,,,-00.000436000000, -47.20000,
,,,-00.000435000000, -47.20000,
,,,-00.000434000000, -46.40000,
,,,-00.000433000000, -47.20000,
,,,-00.000432000000, -47.20000,
,,,-00.000431000000, -46.40000,
,,,-00.000430000000, -47.20000,
,,,-00.000429000000, -46.40000,
,,,-00.000428000000, -46.40000,
,,,-00.000427000000, -46.40000,
,,,-00.000426000000, -46.40000,
,,,-00.000425000000, -46.40000,
,,,-00.000424000000, -46.40000,
,,,-00.000423000000, -46.40000,
,,,-00.000422000000, -46.40000,
,,,-00.000421000000, -46.40000,
,,,-00.000420000000, -46.40000,
,,,-00.000419000000, -46.40000,
,,,-00.000418000000, -46.40000,
,,,-00.000417000000, -46.40000,
,,,-00.000416000000, -46.40000,
,,,-00.000415000000, -45.60000,
,,,-00.000414000000, -45.60000,
,,,-00.000413000000, -45.60000,
,,,-00.000412000000, -45.60000,
,,,-00.000411000000, -46.40000,
,,,-00.000410000000, -45.60000,
,,,-00.000409000000, -45.60000,
,,,-00.000408000000, -45.60000,
,,,-00.000407000000, -45.60000,
,,,-00.000406000000, -45.60000,
,,,-00.000405000000, -45.60000,
,,,-00.000404000000, -44.80000,
,,,-00.000403000000, -44.80000,
,,,-00.000402000000, -44.80000,
,,,-00.000401000000, -45.60000,
,,,-00.000400000000, -45.60000,
,,,-00.000399000000, -45.60000,
,,,-00.000398000000, -44.80000,
,,,-00.000397000000, -44.80000,
,,,-00.000396000000, -44.80000,
,,,-00.000395000000, -44.80000,
,,,-00.000394000000, -44.80000,
,,,-00.000393000000, -44.80000,
,,,-00.000392000000, -44.80000,
,,,-00.000391000000, -44.80000,
,,,-00.000390000000, -44.80000,
,,,-00.000389000000, -44.80000,
,,,-00.000388000000, -44.80000,
,,,-00.000387000000, -44.00000,
,,,-00.000386000000, -44.00000,
,,,-00.000385000000, -44.00000,
,,,-00.000384000000, -44.00000,
,,,-00.000383000000, -44.00000,
,,,-00.000382000000, -44.00000,
,,,-00.000381000000, -44.00000,
,,,-00.000380000000, -44.00000,
,,,-00.000379000000, -44.00000,
,,,-00.000378000000, -44.00000,
,,,-00.000377000000, -44.00000,
,,,-00.000376000000, -44.00000,
,,,-00.000375000000, -44.00000,
,,,-00.000374000000, -43.20000,
,,,-00.000373000000, -43.20000,
,,,-00.000372000000, -44.00000,
,,,-00.000371000000, -43.20000,
,,,-00.000370000000, -43.20000,
,,,-00.000369000000, -43.20000,
,,,-00.000368000000, -43.20000,
,,,-00.000367000000, -43.20000,
,,,-00.000366000000, -43.20000,
,,,-00.000365000000, -42.40000,
,,,-00.000364000000, -42.40000,
,,,-00.000363000000, -43.20000,
,,,-00.000362000000, -42.40000,
,,,-00.000361000000, -43.20000,
,,,-00.000360000000, -42.40000,
,,,-00.000359000000, -42.40000,
,,,-00.000358000000, -42.40000,
,,,-00.000357000000, -42.40000,
,,,-00.000356000000, -42.40000,
,,,-00.000355000000, -42.40000,
,,,-00.000354000000, -42.40000,
,,,-00.000353000000, -42.40000,
,,,-00.000352000000, -42.40000,
,,,-00.000351000000, -41.60000,
,,,-00.000350000000, -41.60000,
,,,-00.000349000000, -41.60000,
,,,-00.000348000000, -41.60000,
,,,-00.000347000000, -41.60000,
,,,-00.000346000000, -41.60000,
,,,-00.000345000000, -41.60000,
,,,-00.000344000000, -41.60000,
,,,-00.000343000000, -41.60000,
,,,-00.000342000000, -41.60000,
,,,-00.000341000000, -40.80000,
,,,-00.000340000000, -40.80000,
,,,-00.000339000000, -40.80000,
,,,-00.000338000000, -40.80000,
,,,-00.000337000000, -40.80000,
,,,-00.000336000000, -40.80000,
,,,-00.000335000000, -40.00000,
,,,-00.000334000000, -40.80000,
,,,-00.000333000000, -40.80000,
,,,-00.000332000000, -40.80000,
,,,-00.000331000000, -40.80000,
,,,-00.000330000000, -40.00000,
,,,-00.000329000000, -40.00000,
,,,-00.000328000000, -39.20000,
,,,-00.000327000000, -40.00000,
,,,-00.000326000000, -40.00000,
,,,-00.000325000000, -39.20000,
,,,-00.000324000000, -40.00000,
,,,-00.000323000000, -39.20000,
,,,-00.000322000000, -40.00000,
,,,-00.000321000000, -40.00000,
,,,-00.000320000000, -39.20000,
,,,-00.000319000000, -39.20000,
,,,-00.000318000000, -39.20000,
,,,-00.000317000000, -39.20000,
,,,-00.000316000000, -39.20000,
,,,-00.000315000000, -39.20000,
,,,-00.000314000000, -39.20000,
,,,-00.000313000000, -38.40000,
,,,-00.000312000000, -39.20000,
,,,-00.000311000000, -38.40000,
,,,-00.000310000000, -38.40000,
,,,-00.000309000000, -38.40000,
,,,-00.000308000000, -37.60000,
,,,-00.000307000000, -37.60000,
,,,-00.000306000000, -37.60000,
,,,-00.000305000000, -37.60000,
,,,-00.000304000000, -37.60000,
,,,-00.000303000000, -37.60000,
,,,-00.000302000000, -37.60000,
,,,-00.000301000000, -37.60000,
,,,-00.000300000000, -37.60000,
,,,-00.000299000000, -36.80000,
,,,-00.000298000000, -37.60000,
,,,-00.000297000000, -36.80000,
,,,-00.000296000000, -36.80000,
,,,-00.000295000000, -36.80000,
,,,-00.000294000000, -36.80000,
,,,-00.000293000000, -36.80000,
,,,-00.000292000000, -36.80000,
,,,-00.000291000000, -36.80000,
,,,-00.000290000000, -36.00000,
,,,-00.000289000000, -36.00000,
,,,-00.000288000000, -36.00000,
,,,-00.000287000000, -36.00000,
,,,-00.000286000000, -36.00000,
,,,-00.000285000000, -36.00000,
,,,-00.000284000000, -35.20000,
,,,-00.000283000000, -35.20000,
,,,-00.000282000000, -36.00000,
,,,-00.000281000000, -35.20000,
,,,-00.000280000000, -35.20000,
,,,-00.000279000000, -35.20000,
,,,-00.000278000000, -35.20000,
,,,-00.000277000000, -35.20000,
,,,-00.000276000000, -35.20000,
,,,-00.000275000000, -34.40000,
,,,-00.000274000000, -34.40000,
,,,-00.000273000000, -34.40000,
,,,-00.000272000000, -34.40000,
,,,-00.000271000000, -34.40000,
,,,-00.000270000000, -34.40000,
,,,-00.000269000000, -34.40000,
,,,-00.000268000000, -34.40000,
,,,-00.000267000000, -33.60000,
,,,-00.000266000000, -33.60000,
,,,-00.000265000000, -33.60000,
,,,-00.000264000000, -33.60000,
,,,-00.000263000000, -32.80000,
,,,-00.000262000000, -32.80000,
,,,-00.000261000000, -33.60000,
,,,-00.000260000000, -33.60000,
,,,-00.000259000000, -33.60000,
,,,-00.000258000000, -32.80000,
,,,-00.000257000000, -32.80000,
,,,-00.000256000000, -32.80000,
,,,-00.000255000000, -32.00000,
,,,-00.000254000000, -32.80000,
,,,-00.000253000000, -32.80000,
,,,-00.000252000000, -32.00000,
,,,-00.000251000000, -32.00000,
,,,-00.000250000000, -32.00000,
,,,-00.000249000000, -32.00000,
,,,-00.000248000000, -32.00000,
,,,-00.000247000000, -32.00000,
,,,-00.000246000000, -32.00000,
,,,-00.000245000000, -32.00000,
,,,-00.000244000000, -32.00000,
,,,-00.000243000000, -31.20000,
,,,-00.000242000000, -31.20000,
,,,-00.000241000000, -30.40000,
,,,-00.000240000000, -31.20000,
,,,-00.000239000000, -30.40000,
,,,-00.000238000000, -30.40000,
,,,-00.000237000000, -30.40000,
,,,-00.000236000000, -30.40000,
,,,-00.000235000000, -30.40000,
,,,-00.000234000000, -30.40000,
,,,-00.000233000000, -30.40000,
,,,-00.000232000000, -29.60000,
,,,-00.000231000000, -30.40000,
,,,-00.000230000000, -29.60000,
,,,-00.000229000000, -29.60000,
,,,-00.000228000000, -29.60000,
,,,-00.000227000000, -28.80000,
,,,-00.000226000000, -28.80000,
,,,-00.000225000000, -28.80000,
,,,-00.000224000000, -28.80000,
,,,-00.000223000000, -28.80000,
,,,-00.000222000000, -28.80000,
,,,-00.000221000000, -28.80000,
,,,-00.000220000000, -28.80000,
,,,-00.000219000000, -28.80000,
,,,-00.000218000000, -28.00000,
,,,-00.000217000000, -28.00000,
,,,-00.000216000000, -28.00000,
,,,-00.000215000000, -28.00000,
,,,-00.000214000000, -27.20000,
,,,-00.000213000000, -27.20000,
,,,-00.000212000000, -27.20000,
,,,-00.000211000000, -28.00000,
,,,-00.000210000000, -27.20000,
,,,-00.000209000000, -27.20000,
,,,-00.000208000000, -27.20000,
,,,-00.000207000000, -26.40000,
,,,-00.000206000000, -26.40000,
,,,-00.000205000000, -26.40000,
,,,-00.000204000000, -26.40000,
,,,-00.000203000000, -26.40000,
,,,-00.000202000000, -26.40000,
,,,-00.000201000000, -26.40000,
,,,-00.000200000000, -25.60000,
,,,-00.000199000000, -25.60000,
,,,-00.000198000000, -25.60000,
,,,-00.000197000000, -25.60000,
,,,-00.000196000000, -25.60000,
,,,-00.000195000000, -24.80000,
,,,-00.000194000000, -24.80000,
,,,-00.000193000000, -25.60000,
,,,-00.000192000000, -25.60000,
,,,-00.000191000000, -24.00000,
,,,-00.000190000000, -24.80000,
,,,-00.000189000000, -24.80000,
,,,-00.000188000000, -24.00000,
,,,-00.000187000000, -24.00000,
,,,-00.000186000000, -24.00000,
,,,-00.000185000000, -24.00000,
,,,-00.000184000000, -24.00000,
,,,-00.000183000000, -23.20000,
,,,-00.000182000000, -24.00000,
,,,-00.000181000000, -23.20000,
,,,-00.000180000000, -23.20000,
,,,-00.000179000000, -23.20000,
,,,-00.000178000000, -22.40000,
,,,-00.000177000000, -22.40000,
,,,-00.000176000000, -22.40000,
,,,-00.000175000000, -22.40000,
,,,-00.000174000000, -22.40000,
,,,-00.000173000000, -22.40000,
,,,-00.000172000000, -22.40000,
,,,-00.000171000000, -22.40000,
,,,-00.000170000000, -22.40000,
,,,-00.000169000000, -21.60000,
,,,-00.000168000000, -21.60000,
,,,-00.000167000000, -21.60000,
,,,-00.000166000000, -21.60000,
,,,-00.000165000000, -20.80000,
,,,-00.000164000000, -21.60000,
,,,-00.000163000000, -21.60000,
,,,-00.000162000000, -20.80000,
,,,-00.000161000000, -20.80000,
,,,-00.000160000000, -20.80000,
,,,-00.000159000000, -20.80000,
,,,-00.000158000000, -20.80000,
,,,-00.000157000000, -20.00000,
,,,-00.000156000000, -20.00000,
