files/2010/IE2003/lab/lab6/screenshots-osciloscopio/ALL0006/F0006MTH.CSV

Record Length,2.500000e+03,,   0.003240000000,  -1.12000,
Sample Interval,1.000000e-06,,   0.003241000000,  -1.12000,
Trigger Point,-3.240000000000e+03,,   0.003242000000,  -1.12000,
,,,   0.003243000000,  -1.12000,
,,,   0.003244000000,  -1.12000,
,,,   0.003245000000,  -1.12000,
Source,MATH,,   0.003246000000,  -1.12000,
Vertical Units,U,,   0.003247000000,  -1.08000,
Vertical Scale,0.000000e+00,,   0.003248000000,  -1.12000,
Vertical Offset,-4.000000e-02,,   0.003249000000,  -1.16000,
Horizontal Units,s,,   0.003250000000,  -1.12000,
Horizontal Scale,2.500000e-04,,   0.003251000000,  -1.12000,
Pt Fmt,Y,,   0.003252000000,  -1.12000,
Yzero,0.000000e+00,,   0.003253000000,  -1.12000,
Probe Atten,1.000000e+01,,   0.003254000000,  -1.16000,
Firmware Version,FV:v6.08,,   0.003255000000,  -1.12000,
,,,0.003256000000,  -1.16000,
,,,0.003257000000,  -1.16000,
,,,0.003258000000,  -1.16000,
,,,0.003259000000,  -1.16000,
,,,0.003260000000,  -1.16000,
,,,0.003261000000,  -1.16000,
,,,0.003262000000,  -1.20000,
,,,0.003263000000,  -1.16000,
,,,0.003264000000,  -1.20000,
,,,0.003265000000,  -1.16000,
,,,0.003266000000,  -1.20000,
,,,0.003267000000,  -1.20000,
,,,0.003268000000,  -1.16000,
,,,0.003269000000,  -1.20000,
,,,0.003270000000,  -1.20000,
,,,0.003271000000,  -1.20000,
,,,0.003272000000,  -1.20000,
,,,0.003273000000,  -1.20000,
,,,0.003274000000,  -1.20000,
,,,0.003275000000,  -1.20000,
,,,0.003276000000,  -1.20000,
,,,0.003277000000,  -1.24000,
,,,0.003278000000,  -1.24000,
,,,0.003279000000,  -1.24000,
,,,0.003280000000,  -1.24000,
,,,0.003281000000,  -1.28000,
,,,0.003282000000,  -1.20000,
,,,0.003283000000,  -1.24000,
,,,0.003284000000,  -1.24000,
,,,0.003285000000,  -1.24000,
,,,0.003286000000,  -1.24000,
,,,0.003287000000,  -1.24000,
,,,0.003288000000,  -1.24000,
,,,0.003289000000,  -1.24000,
,,,0.003290000000,  -1.24000,
,,,0.003291000000,  -1.24000,
,,,0.003292000000,  -1.28000,
,,,0.003293000000,  -1.24000,
,,,0.003294000000,  -1.28000,
,,,0.003295000000,  -1.28000,
,,,0.003296000000,  -1.28000,
,,,0.003297000000,  -1.32000,
,,,0.003298000000,  -1.28000,
,,,0.003299000000,  -1.32000,
,,,0.003300000000,  -1.28000,
,,,0.003301000000,  -1.28000,
,,,0.003302000000,  -1.28000,
,,,0.003303000000,  -1.32000,
,,,0.003304000000,  -1.28000,
,,,0.003305000000,  -1.28000,
,,,0.003306000000,  -1.28000,
,,,0.003307000000,  -1.32000,
,,,0.003308000000,  -1.28000,
,,,0.003309000000,  -1.32000,
,,,0.003310000000,  -1.32000,
,,,0.003311000000,  -1.28000,
,,,0.003312000000,  -1.32000,
,,,0.003313000000,  -1.28000,
,,,0.003314000000,  -1.32000,
,,,0.003315000000,  -1.32000,
,,,0.003316000000,  -1.32000,
,,,0.003317000000,  -1.36000,
,,,0.003318000000,  -1.32000,
,,,0.003319000000,  -1.32000,
,,,0.003320000000,  -1.36000,
,,,0.003321000000,  -1.36000,
,,,0.003322000000,  -1.28000,
,,,0.003323000000,  -1.32000,
,,,0.003324000000,  -1.32000,
,,,0.003325000000,  -1.36000,
,,,0.003326000000,  -1.36000,
,,,0.003327000000,  -1.32000,
,,,0.003328000000,  -1.40000,
,,,0.003329000000,  -1.32000,
,,,0.003330000000,  -1.36000,
,,,0.003331000000,  -1.40000,
,,,0.003332000000,  -1.36000,
,,,0.003333000000,  -1.36000,
,,,0.003334000000,  -1.36000,
,,,0.003335000000,  -1.36000,
,,,0.003336000000,  -1.40000,
,,,0.003337000000,  -1.36000,
,,,0.003338000000,  -1.36000,
,,,0.003339000000,  -1.40000,
,,,0.003340000000,  -1.40000,
,,,0.003341000000,  -1.40000,
,,,0.003342000000,  -1.40000,
,,,0.003343000000,  -1.40000,
,,,0.003344000000,  -1.40000,
,,,0.003345000000,  -1.40000,
,,,0.003346000000,  -1.40000,
,,,0.003347000000,  -1.36000,
,,,0.003348000000,  -1.40000,
,,,0.003349000000,  -1.44000,
,,,0.003350000000,  -1.44000,
,,,0.003351000000,  -1.40000,
,,,0.003352000000,  -1.44000,
,,,0.003353000000,  -1.40000,
,,,0.003354000000,  -1.44000,
,,,0.003355000000,  -1.40000,
,,,0.003356000000,  -1.40000,
,,,0.003357000000,  -1.40000,
,,,0.003358000000,  -1.40000,
,,,0.003359000000,  -1.40000,
,,,0.003360000000,  -1.40000,
,,,0.003361000000,  -1.40000,
,,,0.003362000000,  -1.40000,
,,,0.003363000000,  -1.40000,
,,,0.003364000000,  -1.40000,
,,,0.003365000000,  -1.44000,
,,,0.003366000000,  -1.40000,
,,,0.003367000000,  -1.44000,
,,,0.003368000000,  -1.44000,
,,,0.003369000000,  -1.44000,
,,,0.003370000000,  -1.44000,
,,,0.003371000000,  -1.44000,
,,,0.003372000000,  -1.44000,
,,,0.003373000000,  -1.44000,
,,,0.003374000000,  -1.44000,
,,,0.003375000000,  -1.44000,
,,,0.003376000000,  -1.44000,
,,,0.003377000000,  -1.44000,
,,,0.003378000000,  -1.44000,
,,,0.003379000000,  -1.48000,
,,,0.003380000000,  -1.44000,
,,,0.003381000000,  -1.44000,
,,,0.003382000000,  -1.44000,
,,,0.003383000000,  -1.48000,
,,,0.003384000000,  -1.52000,
,,,0.003385000000,  -1.44000,
,,,0.003386000000,  -1.44000,
,,,0.003387000000,  -1.48000,
,,,0.003388000000,  -1.48000,
,,,0.003389000000,  -1.48000,
,,,0.003390000000,  -1.48000,
,,,0.003391000000,  -1.48000,
,,,0.003392000000,  -1.48000,
,,,0.003393000000,  -1.48000,
,,,0.003394000000,  -1.48000,
,,,0.003395000000,  -1.48000,
,,,0.003396000000,  -1.52000,
,,,0.003397000000,  -1.48000,
,,,0.003398000000,  -1.48000,
,,,0.003399000000,  -1.48000,
,,,0.003400000000,  -1.48000,
,,,0.003401000000,  -1.48000,
,,,0.003402000000,  -1.52000,
,,,0.003403000000,  -1.52000,
,,,0.003404000000,  -1.48000,
,,,0.003405000000,  -1.48000,
,,,0.003406000000,  -1.48000,
,,,0.003407000000,  -1.52000,
,,,0.003408000000,  -1.52000,
,,,0.003409000000,  -1.52000,
,,,0.003410000000,  -1.52000,
,,,0.003411000000,  -1.52000,
,,,0.003412000000,  -1.52000,
,,,0.003413000000,  -1.52000,
,,,0.003414000000,  -1.56000,
,,,0.003415000000,  -1.52000,
,,,0.003416000000,  -1.52000,
,,,0.003417000000,  -1.48000,
,,,0.003418000000,  -1.56000,
,,,0.003419000000,  -1.52000,
,,,0.003420000000,  -1.56000,
,,,0.003421000000,  -1.52000,
,,,0.003422000000,  -1.56000,
,,,0.003423000000,  -1.56000,
,,,0.003424000000,  -1.56000,
,,,0.003425000000,  -1.52000,
,,,0.003426000000,  -1.52000,
,,,0.003427000000,  -1.52000,
,,,0.003428000000,  -1.52000,
,,,0.003429000000,  -1.52000,
,,,0.003430000000,  -1.56000,
,,,0.003431000000,  -1.56000,
,,,0.003432000000,  -1.52000,
,,,0.003433000000,  -1.52000,
,,,0.003434000000,  -1.56000,
,,,0.003435000000,  -1.56000,
,,,0.003436000000,  -1.52000,
,,,0.003437000000,  -1.56000,
,,,0.003438000000,  -1.52000,
,,,0.003439000000,  -1.52000,
,,,0.003440000000,  -1.52000,
,,,0.003441000000,  -1.56000,
,,,0.003442000000,  -1.52000,
,,,0.003443000000,  -1.56000,
,,,0.003444000000,  -1.60000,
,,,0.003445000000,  -1.56000,
,,,0.003446000000,  -1.56000,
,,,0.003447000000,  -1.56000,
,,,0.003448000000,  -1.56000,
,,,0.003449000000,  -1.56000,
,,,0.003450000000,  -1.56000,
,,,0.003451000000,  -1.56000,
,,,0.003452000000,  -1.56000,
,,,0.003453000000,  -1.56000,
,,,0.003454000000,  -1.56000,
,,,0.003455000000,  -1.56000,
,,,0.003456000000,  -1.56000,
,,,0.003457000000,  -1.56000,
,,,0.003458000000,  -1.52000,
,,,0.003459000000,  -1.56000,
,,,0.003460000000,  -1.56000,
,,,0.003461000000,  -1.56000,
,,,0.003462000000,  -1.56000,
,,,0.003463000000,  -1.56000,
,,,0.003464000000,  -1.56000,
,,,0.003465000000,  -1.56000,
,,,0.003466000000,  -1.56000,
,,,0.003467000000,  -1.52000,
,,,0.003468000000,  -1.56000,
,,,0.003469000000,  -1.56000,
,,,0.003470000000,  -1.56000,
,,,0.003471000000,  -1.60000,
,,,0.003472000000,  -1.60000,
,,,0.003473000000,  -1.60000,
,,,0.003474000000,  -1.56000,
,,,0.003475000000,  -1.56000,
,,,0.003476000000,  -1.56000,
,,,0.003477000000,  -1.60000,
,,,0.003478000000,  -1.56000,
,,,0.003479000000,  -1.60000,
,,,0.003480000000,  -1.56000,
,,,0.003481000000,  -1.52000,
,,,0.003482000000,  -1.52000,
,,,0.003483000000,  -1.56000,
,,,0.003484000000,  -1.60000,
,,,0.003485000000,  -1.56000,
,,,0.003486000000,  -1.52000,
,,,0.003487000000,  -1.60000,
,,,0.003488000000,  -1.60000,
,,,0.003489000000,  -1.60000,
,,,0.003490000000,  -1.60000,
,,,0.003491000000,  -1.60000,
,,,0.003492000000,  -1.56000,
,,,0.003493000000,  -1.56000,
,,,0.003494000000,  -1.60000,
,,,0.003495000000,  -1.60000,
,,,0.003496000000,  -1.56000,
,,,0.003497000000,  -1.60000,
,,,0.003498000000,  -1.60000,
,,,0.003499000000,  -1.64000,
,,,0.003500000000,  -1.56000,
,,,0.003501000000,  -1.56000,
,,,0.003502000000,  -1.60000,
,,,0.003503000000,  -1.60000,
,,,0.003504000000,  -1.60000,
,,,0.003505000000,  -1.52000,
,,,0.003506000000,  -1.60000,
,,,0.003507000000,  -1.56000,
,,,0.003508000000,  -1.60000,
,,,0.003509000000,  -1.56000,
,,,0.003510000000,  -1.60000,
,,,0.003511000000,  -1.56000,
,,,0.003512000000,  -1.56000,
,,,0.003513000000,  -1.56000,
,,,0.003514000000,  -1.60000,
,,,0.003515000000,  -1.60000,
,,,0.003516000000,  -1.60000,
,,,0.003517000000,  -1.60000,
,,,0.003518000000,  -1.60000,
,,,0.003519000000,  -1.60000,
,,,0.003520000000,  -1.56000,
,,,0.003521000000,  -1.60000,
,,,0.003522000000,  -1.56000,
,,,0.003523000000,  -1.56000,
,,,0.003524000000,  -1.60000,
,,,0.003525000000,  -1.60000,
,,,0.003526000000,  -1.60000,
,,,0.003527000000,  -1.60000,
,,,0.003528000000,  -1.52000,
,,,0.003529000000,  -1.60000,
,,,0.003530000000,  -1.56000,
,,,0.003531000000,  -1.60000,
,,,0.003532000000,  -1.52000,
,,,0.003533000000,  -1.60000,
,,,0.003534000000,  -1.56000,
,,,0.003535000000,  -1.56000,
,,,0.003536000000,  -1.56000,
,,,0.003537000000,  -1.60000,
,,,0.003538000000,  -1.60000,
,,,0.003539000000,  -1.60000,
,,,0.003540000000,  -1.60000,
,,,0.003541000000,  -1.56000,
,,,0.003542000000,  -1.56000,
,,,0.003543000000,  -1.56000,
,,,0.003544000000,  -1.56000,
,,,0.003545000000,  -1.56000,
,,,0.003546000000,  -1.60000,
,,,0.003547000000,  -1.56000,
,,,0.003548000000,  -1.56000,
,,,0.003549000000,  -1.56000,
,,,0.003550000000,  -1.56000,
,,,0.003551000000,  -1.56000,
,,,0.003552000000,  -1.56000,
,,,0.003553000000,  -1.56000,
,,,0.003554000000,  -1.56000,
,,,0.003555000000,  -1.56000,
,,,0.003556000000,  -1.56000,
,,,0.003557000000,  -1.56000,
,,,0.003558000000,  -1.56000,
,,,0.003559000000,  -1.56000,
,,,0.003560000000,  -1.56000,
,,,0.003561000000,  -1.56000,
,,,0.003562000000,  -1.56000,
,,,0.003563000000,  -1.56000,
,,,0.003564000000,  -1.52000,
,,,0.003565000000,  -1.52000,
,,,0.003566000000,  -1.52000,
,,,0.003567000000,  -1.56000,
,,,0.003568000000,  -1.60000,
,,,0.003569000000,  -1.52000,
,,,0.003570000000,  -1.52000,
,,,0.003571000000,  -1.60000,
,,,0.003572000000,  -1.56000,
,,,0.003573000000,  -1.52000,
,,,0.003574000000,  -1.56000,
,,,0.003575000000,  -1.56000,
,,,0.003576000000,  -1.52000,
,,,0.003577000000,  -1.52000,
,,,0.003578000000,  -1.52000,
,,,0.003579000000,  -1.56000,
,,,0.003580000000,  -1.56000,
,,,0.003581000000,  -1.56000,
,,,0.003582000000,  -1.56000,
,,,0.003583000000,  -1.56000,
,,,0.003584000000,  -1.52000,
,,,0.003585000000,  -1.48000,
,,,0.003586000000,  -1.52000,
,,,0.003587000000,  -1.52000,
,,,0.003588000000,  -1.52000,
,,,0.003589000000,  -1.56000,
,,,0.003590000000,  -1.52000,
,,,0.003591000000,  -1.52000,
,,,0.003592000000,  -1.52000,
,,,0.003593000000,  -1.52000,
,,,0.003594000000,  -1.52000,
,,,0.003595000000,  -1.52000,
,,,0.003596000000,  -1.52000,
,,,0.003597000000,  -1.52000,
,,,0.003598000000,  -1.52000,
,,,0.003599000000,  -1.52000,
,,,0.003600000000,  -1.52000,
,,,0.003601000000,  -1.52000,
,,,0.003602000000,  -1.48000,
,,,0.003603000000,  -1.52000,
,,,0.003604000000,  -1.52000,
,,,0.003605000000,  -1.48000,
,,,0.003606000000,  -1.52000,
,,,0.003607000000,  -1.52000,
,,,0.003608000000,  -1.48000,
,,,0.003609000000,  -1.48000,
,,,0.003610000000,  -1.48000,
,,,0.003611000000,  -1.44000,
,,,0.003612000000,  -1.48000,
,,,0.003613000000,  -1.52000,
,,,0.003614000000,  -1.48000,
,,,0.003615000000,  -1.48000,
,,,0.003616000000,  -1.48000,
,,,0.003617000000,  -1.48000,
,,,0.003618000000,  -1.48000,
,,,0.003619000000,  -1.48000,
,,,0.003620000000,  -1.48000,
,,,0.003621000000,  -1.44000,
,,,0.003622000000,  -1.44000,
,,,0.003623000000,  -1.44000,
,,,0.003624000000,  -1.44000,
,,,0.003625000000,  -1.44000,
,,,0.003626000000,  -1.44000,
,,,0.003627000000,  -1.48000,
,,,0.003628000000,  -1.48000,
,,,0.003629000000,  -1.44000,
,,,0.003630000000,  -1.48000,
,,,0.003631000000,  -1.44000,
,,,0.003632000000,  -1.48000,
,,,0.003633000000,  -1.48000,
,,,0.003634000000,  -1.44000,
,,,0.003635000000,  -1.44000,
,,,0.003636000000,  -1.44000,
,,,0.003637000000,  -1.44000,
,,,0.003638000000,  -1.44000,
,,,0.003639000000,  -1.44000,
,,,0.003640000000,  -1.48000,
,,,0.003641000000,  -1.40000,
,,,0.003642000000,  -1.44000,
,,,0.003643000000,  -1.44000,
,,,0.003644000000,  -1.40000,
,,,0.003645000000,  -1.40000,
,,,0.003646000000,  -1.44000,
,,,0.003647000000,  -1.40000,
,,,0.003648000000,  -1.40000,
,,,0.003649000000,  -1.44000,
,,,0.003650000000,  -1.40000,
,,,0.003651000000,  -1.40000,
,,,0.003652000000,  -1.36000,
,,,0.003653000000,  -1.40000,
,,,0.003654000000,  -1.40000,
,,,0.003655000000,  -1.40000,
,,,0.003656000000,  -1.44000,
,,,0.003657000000,  -1.44000,
,,,0.003658000000,  -1.44000,
,,,0.003659000000,  -1.36000,
,,,0.003660000000,  -1.40000,
,,,0.003661000000,  -1.36000,
,,,0.003662000000,  -1.40000,
,,,0.003663000000,  -1.40000,
,,,0.003664000000,  -1.40000,
,,,0.003665000000,  -1.40000,
,,,0.003666000000,  -1.36000,
,,,0.003667000000,  -1.40000,
,,,0.003668000000,  -1.40000,
,,,0.003669000000,  -1.40000,
,,,0.003670000000,  -1.36000,
,,,0.003671000000,  -1.36000,
,,,0.003672000000,  -1.40000,
,,,0.003673000000,  -1.40000,
,,,0.003674000000,  -1.36000,
,,,0.003675000000,  -1.36000,
,,,0.003676000000,  -1.32000,
,,,0.003677000000,  -1.36000,
,,,0.003678000000,  -1.36000,
,,,0.003679000000,  -1.32000,
,,,0.003680000000,  -1.32000,
,,,0.003681000000,  -1.32000,
,,,0.003682000000,  -1.32000,
,,,0.003683000000,  -1.36000,
,,,0.003684000000,  -1.36000,
,,,0.003685000000,  -1.36000,
,,,0.003686000000,  -1.36000,
,,,0.003687000000,  -1.36000,
,,,0.003688000000,  -1.32000,
,,,0.003689000000,  -1.32000,
,,,0.003690000000,  -1.32000,
,,,0.003691000000,  -1.32000,
,,,0.003692000000,  -1.32000,
,,,0.003693000000,  -1.32000,
,,,0.003694000000,  -1.28000,
,,,0.003695000000,  -1.28000,
,,,0.003696000000,  -1.28000,
,,,0.003697000000,  -1.36000,
,,,0.003698000000,  -1.32000,
,,,0.003699000000,  -1.32000,
,,,0.003700000000,  -1.32000,
,,,0.003701000000,  -1.32000,
,,,0.003702000000,  -1.32000,
,,,0.003703000000,  -1.28000,
,,,0.003704000000,  -1.32000,
,,,0.003705000000,  -1.32000,
,,,0.003706000000,  -1.32000,
,,,0.003707000000,  -1.28000,
,,,0.003708000000,  -1.28000,
,,,0.003709000000,  -1.28000,
,,,0.003710000000,  -1.28000,
,,,0.003711000000,  -1.28000,
,,,0.003712000000,  -1.28000,
,,,0.003713000000,  -1.28000,
,,,0.003714000000,  -1.24000,
,,,0.003715000000,  -1.24000,
,,,0.003716000000,  -1.24000,
,,,0.003717000000,  -1.24000,
,,,0.003718000000,  -1.24000,
,,,0.003719000000,  -1.24000,
,,,0.003720000000,  -1.24000,
,,,0.003721000000,  -1.28000,
,,,0.003722000000,  -1.20000,
,,,0.003723000000,  -1.24000,
,,,0.003724000000,  -1.28000,
,,,0.003725000000,  -1.24000,
,,,0.003726000000,  -1.24000,
,,,0.003727000000,  -1.24000,
,,,0.003728000000,  -1.24000,
,,,0.003729000000,  -1.20000,
,,,0.003730000000,  -1.20000,
,,,0.003731000000,  -1.20000,
,,,0.003732000000,  -1.20000,
,,,0.003733000000,  -1.20000,
,,,0.003734000000,  -1.20000,
,,,0.003735000000,  -1.20000,
,,,0.003736000000,  -1.16000,
,,,0.003737000000,  -1.16000,
,,,0.003738000000,  -1.24000,
,,,0.003739000000,  -1.20000,
,,,0.003740000000,  -1.16000,
,,,0.003741000000,  -1.16000,
,,,0.003742000000,  -1.20000,
,,,0.003743000000,  -1.16000,
,,,0.003744000000,  -1.16000,
,,,0.003745000000,  -1.16000,
,,,0.003746000000,  -1.16000,
,,,0.003747000000,  -1.16000,
,,,0.003748000000,  -1.16000,
,,,0.003749000000,  -1.16000,
,,,0.003750000000,  -1.16000,
,,,0.003751000000,  -1.16000,
,,,0.003752000000,  -1.12000,
,,,0.003753000000,  -1.12000,
,,,0.003754000000,  -1.12000,
,,,0.003755000000,  -1.12000,
,,,0.003756000000,  -1.12000,
,,,0.003757000000,  -1.08000,
,,,0.003758000000,  -1.12000,
,,,0.003759000000,  -1.08000,
,,,0.003760000000,  -1.12000,
,,,0.003761000000,  -1.08000,
,,,0.003762000000,  -1.12000,
,,,0.003763000000,  -1.12000,
,,,0.003764000000,  -1.08000,
,,,0.003765000000,  -1.12000,
,,,0.003766000000,  -1.12000,
,,,0.003767000000,  -1.08000,
,,,0.003768000000,  -1.08000,
,,,0.003769000000,  -1.08000,
,,,0.003770000000,  -1.08000,
,,,0.003771000000,  -1.08000,
,,,0.003772000000,  -1.08000,
,,,0.003773000000,  -1.08000,
,,,0.003774000000,  -1.04000,
,,,0.003775000000,  -1.04000,
,,,0.003776000000,  -1.04000,
,,,0.003777000000,  -1.04000,
,,,0.003778000000,  -1.04000,
,,,0.003779000000,  -1.04000,
,,,0.003780000000,  -1.04000,
,,,0.003781000000,  -1.04000,
,,,0.003782000000,  -1.04000,
,,,0.003783000000,  -1.04000,
,,,0.003784000000,  -1.04000,
,,,0.003785000000,  -1.04000,
,,,0.003786000000,  -1.00000,
,,,0.003787000000,  -1.00000,
,,,0.003788000000,  -1.00000,
,,,0.003789000000,  -1.00000,
,,,0.003790000000,  -1.00000,
,,,0.003791000000,  -0.96000,
,,,0.003792000000,  -0.96000,
,,,0.003793000000,  -0.96000,
,,,0.003794000000,  -1.00000,
,,,0.003795000000,  -0.96000,
,,,0.003796000000,  -0.96000,
,,,0.003797000000,  -0.96000,
,,,0.003798000000,  -1.00000,
,,,0.003799000000,  -1.00000,
,,,0.003800000000,  -0.96000,
,,,0.003801000000,  -0.96000,
,,,0.003802000000,  -0.96000,
,,,0.003803000000,  -0.92000,
,,,0.003804000000,  -0.92000,
,,,0.003805000000,  -0.96000,
,,,0.003806000000,  -0.92000,
,,,0.003807000000,  -0.92000,
,,,0.003808000000,  -0.92000,
,,,0.003809000000,  -0.92000,
,,,0.003810000000,  -0.92000,
,,,0.003811000000,  -0.88000,
,,,0.003812000000,  -0.92000,
,,,0.003813000000,  -0.92000,
,,,0.003814000000,  -0.88000,
,,,0.003815000000,  -0.88000,
,,,0.003816000000,  -0.92000,
,,,0.003817000000,  -0.88000,
,,,0.003818000000,  -0.88000,
,,,0.003819000000,  -0.88000,
,,,0.003820000000,  -0.88000,
,,,0.003821000000,  -0.88000,
,,,0.003822000000,  -0.88000,
,,,0.003823000000,  -0.84000,
,,,0.003824000000,  -0.84000,
,,,0.003825000000,  -0.88000,
,,,0.003826000000,  -0.92000,
,,,0.003827000000,  -0.80000,
,,,0.003828000000,  -0.84000,
,,,0.003829000000,  -0.88000,
,,,0.003830000000,  -0.88000,
,,,0.003831000000,  -0.84000,
,,,0.003832000000,  -0.84000,
,,,0.003833000000,  -0.84000,
,,,0.003834000000,  -0.84000,
,,,0.003835000000,  -0.80000,
,,,0.003836000000,  -0.84000,
,,,0.003837000000,  -0.84000,
,,,0.003838000000,  -0.84000,
,,,0.003839000000,  -0.84000,
,,,0.003840000000,  -0.76000,
,,,0.003841000000,  -0.84000,
,,,0.003842000000,  -0.80000,
,,,0.003843000000,  -0.80000,
,,,0.003844000000,  -0.80000,
,,,0.003845000000,  -0.80000,
,,,0.003846000000,  -0.76000,
,,,0.003847000000,  -0.76000,
,,,0.003848000000,  -0.76000,
,,,0.003849000000,  -0.76000,
,,,0.003850000000,  -0.76000,
,,,0.003851000000,  -0.72000,
,,,0.003852000000,  -0.76000,
,,,0.003853000000,  -0.76000,
,,,0.003854000000,  -0.72000,
,,,0.003855000000,  -0.76000,
,,,0.003856000000,  -0.72000,
,,,0.003857000000,  -0.72000,
,,,0.003858000000,  -0.76000,
,,,0.003859000000,  -0.72000,
,,,0.003860000000,  -0.76000,
,,,0.003861000000,  -0.72000,
,,,0.003862000000,  -0.72000,
,,,0.003863000000,  -0.68000,
,,,0.003864000000,  -0.68000,
,,,0.003865000000,  -0.68000,
,,,0.003866000000,  -0.68000,
,,,0.003867000000,  -0.72000,
,,,0.003868000000,  -0.68000,
,,,0.003869000000,  -0.68000,
,,,0.003870000000,  -0.72000,
,,,0.003871000000,  -0.68000,
,,,0.003872000000,  -0.68000,
,,,0.003873000000,  -0.68000,
,,,0.003874000000,  -0.68000,
,,,0.003875000000,  -0.64000,
,,,0.003876000000,  -0.64000,
,,,0.003877000000,  -0.60000,
,,,0.003878000000,  -0.60000,
,,,0.003879000000,  -0.60000,
,,,0.003880000000,  -0.60000,
,,,0.003881000000,  -0.60000,
,,,0.003882000000,  -0.64000,
,,,0.003883000000,  -0.64000,
,,,0.003884000000,  -0.60000,
,,,0.003885000000,  -0.60000,
,,,0.003886000000,  -0.60000,
,,,0.003887000000,  -0.60000,
,,,0.003888000000,  -0.60000,
,,,0.003889000000,  -0.60000,
,,,0.003890000000,  -0.56000,
,,,0.003891000000,  -0.60000,
,,,0.003892000000,  -0.56000,
,,,0.003893000000,  -0.52000,
,,,0.003894000000,  -0.56000,
