files/2010/IE2003/lab/lab6/screenshots-osciloscopio/ALL0006/F0006CH1.CSV

Record Length,2.500000e+03,,   0.003240000000, -36.00000,
Sample Interval,1.000000e-06,,   0.003241000000, -36.00000,
Trigger Point,-3.240000000000e+03,,   0.003242000000, -36.00000,
,,,   0.003243000000, -36.00000,
,,,   0.003244000000, -36.00000,
,,,   0.003245000000, -36.00000,
Source,CH1,,   0.003246000000, -36.00000,
Vertical Units,V,,   0.003247000000, -36.00000,
Vertical Scale,2.000000e+01,,   0.003248000000, -36.80000,
Vertical Offset,1.680000e+01,,   0.003249000000, -36.80000,
Horizontal Units,s,,   0.003250000000, -36.80000,
Horizontal Scale,2.500000e-04,,   0.003251000000, -36.80000,
Pt Fmt,Y,,   0.003252000000, -36.80000,
Yzero,0.000000e+00,,   0.003253000000, -36.80000,
Probe Atten,1.000000e+01,,   0.003254000000, -37.60000,
Firmware Version,FV:v6.08,,   0.003255000000, -36.80000,
,,,0.003256000000, -37.60000,
,,,0.003257000000, -37.60000,
,,,0.003258000000, -37.60000,
,,,0.003259000000, -37.60000,
,,,0.003260000000, -37.60000,
,,,0.003261000000, -37.60000,
,,,0.003262000000, -38.40000,
,,,0.003263000000, -38.40000,
,,,0.003264000000, -38.40000,
,,,0.003265000000, -38.40000,
,,,0.003266000000, -38.40000,
,,,0.003267000000, -38.40000,
,,,0.003268000000, -38.40000,
,,,0.003269000000, -39.20000,
,,,0.003270000000, -39.20000,
,,,0.003271000000, -39.20000,
,,,0.003272000000, -39.20000,
,,,0.003273000000, -39.20000,
,,,0.003274000000, -39.20000,
,,,0.003275000000, -39.20000,
,,,0.003276000000, -39.20000,
,,,0.003277000000, -40.00000,
,,,0.003278000000, -40.00000,
,,,0.003279000000, -40.00000,
,,,0.003280000000, -40.00000,
,,,0.003281000000, -40.80000,
,,,0.003282000000, -40.00000,
,,,0.003283000000, -40.80000,
,,,0.003284000000, -40.80000,
,,,0.003285000000, -40.80000,
,,,0.003286000000, -40.80000,
,,,0.003287000000, -40.80000,
,,,0.003288000000, -40.80000,
,,,0.003289000000, -40.80000,
,,,0.003290000000, -40.80000,
,,,0.003291000000, -40.80000,
,,,0.003292000000, -41.60000,
,,,0.003293000000, -40.80000,
,,,0.003294000000, -41.60000,
,,,0.003295000000, -41.60000,
,,,0.003296000000, -41.60000,
,,,0.003297000000, -42.40000,
,,,0.003298000000, -41.60000,
,,,0.003299000000, -42.40000,
,,,0.003300000000, -41.60000,
,,,0.003301000000, -41.60000,
,,,0.003302000000, -41.60000,
,,,0.003303000000, -42.40000,
,,,0.003304000000, -42.40000,
,,,0.003305000000, -42.40000,
,,,0.003306000000, -42.40000,
,,,0.003307000000, -42.40000,
,,,0.003308000000, -42.40000,
,,,0.003309000000, -43.20000,
,,,0.003310000000, -43.20000,
,,,0.003311000000, -42.40000,
,,,0.003312000000, -43.20000,
,,,0.003313000000, -42.40000,
,,,0.003314000000, -43.20000,
,,,0.003315000000, -43.20000,
,,,0.003316000000, -43.20000,
,,,0.003317000000, -44.00000,
,,,0.003318000000, -43.20000,
,,,0.003319000000, -43.20000,
,,,0.003320000000, -44.00000,
,,,0.003321000000, -44.00000,
,,,0.003322000000, -43.20000,
,,,0.003323000000, -44.00000,
,,,0.003324000000, -44.00000,
,,,0.003325000000, -44.00000,
,,,0.003326000000, -44.00000,
,,,0.003327000000, -44.00000,
,,,0.003328000000, -44.80000,
,,,0.003329000000, -44.00000,
,,,0.003330000000, -44.80000,
,,,0.003331000000, -45.60000,
,,,0.003332000000, -44.80000,
,,,0.003333000000, -44.80000,
,,,0.003334000000, -44.80000,
,,,0.003335000000, -44.80000,
,,,0.003336000000, -45.60000,
,,,0.003337000000, -44.80000,
,,,0.003338000000, -44.80000,
,,,0.003339000000, -45.60000,
,,,0.003340000000, -45.60000,
,,,0.003341000000, -45.60000,
,,,0.003342000000, -45.60000,
,,,0.003343000000, -45.60000,
,,,0.003344000000, -46.40000,
,,,0.003345000000, -45.60000,
,,,0.003346000000, -45.60000,
,,,0.003347000000, -45.60000,
,,,0.003348000000, -45.60000,
,,,0.003349000000, -46.40000,
,,,0.003350000000, -46.40000,
,,,0.003351000000, -46.40000,
,,,0.003352000000, -46.40000,
,,,0.003353000000, -46.40000,
,,,0.003354000000, -46.40000,
,,,0.003355000000, -46.40000,
,,,0.003356000000, -46.40000,
,,,0.003357000000, -46.40000,
,,,0.003358000000, -46.40000,
,,,0.003359000000, -46.40000,
,,,0.003360000000, -46.40000,
,,,0.003361000000, -46.40000,
,,,0.003362000000, -46.40000,
,,,0.003363000000, -46.40000,
,,,0.003364000000, -46.40000,
,,,0.003365000000, -47.20000,
,,,0.003366000000, -46.40000,
,,,0.003367000000, -47.20000,
,,,0.003368000000, -47.20000,
,,,0.003369000000, -47.20000,
,,,0.003370000000, -47.20000,
,,,0.003371000000, -47.20000,
,,,0.003372000000, -47.20000,
,,,0.003373000000, -48.00000,
,,,0.003374000000, -47.20000,
,,,0.003375000000, -47.20000,
,,,0.003376000000, -48.00000,
,,,0.003377000000, -48.00000,
,,,0.003378000000, -48.00000,
,,,0.003379000000, -48.00000,
,,,0.003380000000, -48.00000,
,,,0.003381000000, -48.00000,
,,,0.003382000000, -48.00000,
,,,0.003383000000, -48.80000,
,,,0.003384000000, -48.80000,
,,,0.003385000000, -48.00000,
,,,0.003386000000, -48.00000,
,,,0.003387000000, -48.80000,
,,,0.003388000000, -48.80000,
,,,0.003389000000, -48.80000,
,,,0.003390000000, -48.80000,
,,,0.003391000000, -48.80000,
,,,0.003392000000, -48.80000,
,,,0.003393000000, -48.80000,
,,,0.003394000000, -48.80000,
,,,0.003395000000, -48.80000,
,,,0.003396000000, -49.60000,
,,,0.003397000000, -48.80000,
,,,0.003398000000, -48.80000,
,,,0.003399000000, -48.80000,
,,,0.003400000000, -48.80000,
,,,0.003401000000, -48.80000,
,,,0.003402000000, -49.60000,
,,,0.003403000000, -49.60000,
,,,0.003404000000, -48.80000,
,,,0.003405000000, -48.80000,
,,,0.003406000000, -48.80000,
,,,0.003407000000, -49.60000,
,,,0.003408000000, -49.60000,
,,,0.003409000000, -49.60000,
,,,0.003410000000, -49.60000,
,,,0.003411000000, -49.60000,
,,,0.003412000000, -49.60000,
,,,0.003413000000, -49.60000,
,,,0.003414000000, -50.40000,
,,,0.003415000000, -49.60000,
,,,0.003416000000, -49.60000,
,,,0.003417000000, -49.60000,
,,,0.003418000000, -50.40000,
,,,0.003419000000, -49.60000,
,,,0.003420000000, -50.40000,
,,,0.003421000000, -50.40000,
,,,0.003422000000, -50.40000,
,,,0.003423000000, -50.40000,
,,,0.003424000000, -50.40000,
,,,0.003425000000, -49.60000,
,,,0.003426000000, -50.40000,
,,,0.003427000000, -50.40000,
,,,0.003428000000, -50.40000,
,,,0.003429000000, -50.40000,
,,,0.003430000000, -51.20000,
,,,0.003431000000, -51.20000,
,,,0.003432000000, -50.40000,
,,,0.003433000000, -50.40000,
,,,0.003434000000, -50.40000,
,,,0.003435000000, -51.20000,
,,,0.003436000000, -50.40000,
,,,0.003437000000, -50.40000,
,,,0.003438000000, -50.40000,
,,,0.003439000000, -50.40000,
,,,0.003440000000, -50.40000,
,,,0.003441000000, -51.20000,
,,,0.003442000000, -51.20000,
,,,0.003443000000, -51.20000,
,,,0.003444000000, -51.20000,
,,,0.003445000000, -51.20000,
,,,0.003446000000, -51.20000,
,,,0.003447000000, -51.20000,
,,,0.003448000000, -51.20000,
,,,0.003449000000, -51.20000,
,,,0.003450000000, -51.20000,
,,,0.003451000000, -51.20000,
,,,0.003452000000, -51.20000,
,,,0.003453000000, -51.20000,
,,,0.003454000000, -51.20000,
,,,0.003455000000, -51.20000,
,,,0.003456000000, -51.20000,
,,,0.003457000000, -51.20000,
,,,0.003458000000, -51.20000,
,,,0.003459000000, -51.20000,
,,,0.003460000000, -51.20000,
,,,0.003461000000, -51.20000,
,,,0.003462000000, -51.20000,
,,,0.003463000000, -51.20000,
,,,0.003464000000, -51.20000,
,,,0.003465000000, -51.20000,
,,,0.003466000000, -51.20000,
,,,0.003467000000, -51.20000,
,,,0.003468000000, -51.20000,
,,,0.003469000000, -51.20000,
,,,0.003470000000, -51.20000,
,,,0.003471000000, -52.00000,
,,,0.003472000000, -52.00000,
,,,0.003473000000, -52.00000,
,,,0.003474000000, -51.20000,
,,,0.003475000000, -51.20000,
,,,0.003476000000, -51.20000,
,,,0.003477000000, -52.00000,
,,,0.003478000000, -51.20000,
,,,0.003479000000, -52.00000,
,,,0.003480000000, -51.20000,
,,,0.003481000000, -51.20000,
,,,0.003482000000, -51.20000,
,,,0.003483000000, -52.00000,
,,,0.003484000000, -52.00000,
,,,0.003485000000, -52.00000,
,,,0.003486000000, -51.20000,
,,,0.003487000000, -52.00000,
,,,0.003488000000, -52.00000,
,,,0.003489000000, -52.00000,
,,,0.003490000000, -52.00000,
,,,0.003491000000, -52.00000,
,,,0.003492000000, -52.00000,
,,,0.003493000000, -52.00000,
,,,0.003494000000, -52.00000,
,,,0.003495000000, -52.00000,
,,,0.003496000000, -52.00000,
,,,0.003497000000, -52.00000,
,,,0.003498000000, -52.80000,
,,,0.003499000000, -52.80000,
,,,0.003500000000, -52.00000,
,,,0.003501000000, -52.00000,
,,,0.003502000000, -52.00000,
,,,0.003503000000, -52.00000,
,,,0.003504000000, -52.00000,
,,,0.003505000000, -51.20000,
,,,0.003506000000, -52.00000,
,,,0.003507000000, -52.00000,
,,,0.003508000000, -52.80000,
,,,0.003509000000, -52.00000,
,,,0.003510000000, -52.00000,
,,,0.003511000000, -52.00000,
,,,0.003512000000, -52.00000,
,,,0.003513000000, -52.00000,
,,,0.003514000000, -52.00000,
,,,0.003515000000, -52.00000,
,,,0.003516000000, -52.00000,
,,,0.003517000000, -52.00000,
,,,0.003518000000, -52.00000,
,,,0.003519000000, -52.00000,
,,,0.003520000000, -52.00000,
,,,0.003521000000, -52.00000,
,,,0.003522000000, -51.20000,
,,,0.003523000000, -51.20000,
,,,0.003524000000, -52.00000,
,,,0.003525000000, -52.00000,
,,,0.003526000000, -52.00000,
,,,0.003527000000, -52.00000,
,,,0.003528000000, -51.20000,
,,,0.003529000000, -52.00000,
,,,0.003530000000, -51.20000,
,,,0.003531000000, -52.00000,
,,,0.003532000000, -51.20000,
,,,0.003533000000, -52.00000,
,,,0.003534000000, -51.20000,
,,,0.003535000000, -51.20000,
,,,0.003536000000, -51.20000,
,,,0.003537000000, -52.00000,
,,,0.003538000000, -52.00000,
,,,0.003539000000, -52.00000,
,,,0.003540000000, -52.00000,
,,,0.003541000000, -51.20000,
,,,0.003542000000, -51.20000,
,,,0.003543000000, -51.20000,
,,,0.003544000000, -51.20000,
,,,0.003545000000, -51.20000,
,,,0.003546000000, -52.00000,
,,,0.003547000000, -51.20000,
,,,0.003548000000, -51.20000,
,,,0.003549000000, -51.20000,
,,,0.003550000000, -51.20000,
,,,0.003551000000, -51.20000,
,,,0.003552000000, -51.20000,
,,,0.003553000000, -51.20000,
,,,0.003554000000, -51.20000,
,,,0.003555000000, -51.20000,
,,,0.003556000000, -51.20000,
,,,0.003557000000, -51.20000,
,,,0.003558000000, -51.20000,
,,,0.003559000000, -51.20000,
,,,0.003560000000, -51.20000,
,,,0.003561000000, -51.20000,
,,,0.003562000000, -51.20000,
,,,0.003563000000, -51.20000,
,,,0.003564000000, -50.40000,
,,,0.003565000000, -50.40000,
,,,0.003566000000, -50.40000,
,,,0.003567000000, -51.20000,
,,,0.003568000000, -51.20000,
,,,0.003569000000, -50.40000,
,,,0.003570000000, -50.40000,
,,,0.003571000000, -51.20000,
,,,0.003572000000, -51.20000,
,,,0.003573000000, -50.40000,
,,,0.003574000000, -51.20000,
,,,0.003575000000, -50.40000,
,,,0.003576000000, -50.40000,
,,,0.003577000000, -50.40000,
,,,0.003578000000, -50.40000,
,,,0.003579000000, -50.40000,
,,,0.003580000000, -50.40000,
,,,0.003581000000, -50.40000,
,,,0.003582000000, -50.40000,
,,,0.003583000000, -50.40000,
,,,0.003584000000, -49.60000,
,,,0.003585000000, -49.60000,
,,,0.003586000000, -50.40000,
,,,0.003587000000, -49.60000,
,,,0.003588000000, -49.60000,
,,,0.003589000000, -50.40000,
,,,0.003590000000, -49.60000,
,,,0.003591000000, -49.60000,
,,,0.003592000000, -49.60000,
,,,0.003593000000, -49.60000,
,,,0.003594000000, -49.60000,
,,,0.003595000000, -49.60000,
,,,0.003596000000, -49.60000,
,,,0.003597000000, -49.60000,
,,,0.003598000000, -49.60000,
,,,0.003599000000, -49.60000,
,,,0.003600000000, -49.60000,
,,,0.003601000000, -49.60000,
,,,0.003602000000, -48.80000,
,,,0.003603000000, -49.60000,
,,,0.003604000000, -49.60000,
,,,0.003605000000, -48.80000,
,,,0.003606000000, -49.60000,
,,,0.003607000000, -49.60000,
,,,0.003608000000, -48.80000,
,,,0.003609000000, -48.80000,
,,,0.003610000000, -48.80000,
,,,0.003611000000, -48.00000,
,,,0.003612000000, -48.80000,
,,,0.003613000000, -49.60000,
,,,0.003614000000, -48.80000,
,,,0.003615000000, -48.80000,
,,,0.003616000000, -48.80000,
,,,0.003617000000, -48.80000,
,,,0.003618000000, -48.80000,
,,,0.003619000000, -48.80000,
,,,0.003620000000, -48.80000,
,,,0.003621000000, -48.00000,
,,,0.003622000000, -48.00000,
,,,0.003623000000, -48.00000,
,,,0.003624000000, -48.00000,
,,,0.003625000000, -48.00000,
,,,0.003626000000, -48.00000,
,,,0.003627000000, -48.00000,
,,,0.003628000000, -48.00000,
,,,0.003629000000, -48.00000,
,,,0.003630000000, -48.00000,
,,,0.003631000000, -48.00000,
,,,0.003632000000, -48.00000,
,,,0.003633000000, -48.00000,
,,,0.003634000000, -47.20000,
,,,0.003635000000, -47.20000,
,,,0.003636000000, -47.20000,
,,,0.003637000000, -47.20000,
,,,0.003638000000, -47.20000,
,,,0.003639000000, -47.20000,
,,,0.003640000000, -48.00000,
,,,0.003641000000, -46.40000,
,,,0.003642000000, -47.20000,
,,,0.003643000000, -47.20000,
,,,0.003644000000, -46.40000,
,,,0.003645000000, -46.40000,
,,,0.003646000000, -46.40000,
,,,0.003647000000, -46.40000,
,,,0.003648000000, -46.40000,
,,,0.003649000000, -46.40000,
,,,0.003650000000, -46.40000,
,,,0.003651000000, -46.40000,
,,,0.003652000000, -45.60000,
,,,0.003653000000, -46.40000,
,,,0.003654000000, -46.40000,
,,,0.003655000000, -46.40000,
,,,0.003656000000, -46.40000,
,,,0.003657000000, -46.40000,
,,,0.003658000000, -46.40000,
,,,0.003659000000, -45.60000,
,,,0.003660000000, -45.60000,
,,,0.003661000000, -45.60000,
,,,0.003662000000, -45.60000,
,,,0.003663000000, -45.60000,
,,,0.003664000000, -45.60000,
,,,0.003665000000, -45.60000,
,,,0.003666000000, -44.80000,
,,,0.003667000000, -45.60000,
,,,0.003668000000, -45.60000,
,,,0.003669000000, -45.60000,
,,,0.003670000000, -44.80000,
,,,0.003671000000, -44.80000,
,,,0.003672000000, -45.60000,
,,,0.003673000000, -45.60000,
,,,0.003674000000, -44.80000,
,,,0.003675000000, -44.80000,
,,,0.003676000000, -44.00000,
,,,0.003677000000, -44.80000,
,,,0.003678000000, -44.80000,
,,,0.003679000000, -44.00000,
,,,0.003680000000, -44.00000,
,,,0.003681000000, -44.00000,
,,,0.003682000000, -44.00000,
,,,0.003683000000, -44.00000,
,,,0.003684000000, -44.00000,
,,,0.003685000000, -44.00000,
,,,0.003686000000, -44.00000,
,,,0.003687000000, -44.00000,
,,,0.003688000000, -43.20000,
,,,0.003689000000, -43.20000,
,,,0.003690000000, -43.20000,
,,,0.003691000000, -43.20000,
,,,0.003692000000, -43.20000,
,,,0.003693000000, -43.20000,
,,,0.003694000000, -42.40000,
,,,0.003695000000, -42.40000,
,,,0.003696000000, -42.40000,
,,,0.003697000000, -43.20000,
,,,0.003698000000, -43.20000,
,,,0.003699000000, -42.40000,
,,,0.003700000000, -42.40000,
,,,0.003701000000, -42.40000,
,,,0.003702000000, -42.40000,
,,,0.003703000000, -42.40000,
,,,0.003704000000, -42.40000,
,,,0.003705000000, -42.40000,
,,,0.003706000000, -42.40000,
,,,0.003707000000, -41.60000,
,,,0.003708000000, -41.60000,
,,,0.003709000000, -41.60000,
,,,0.003710000000, -41.60000,
,,,0.003711000000, -41.60000,
,,,0.003712000000, -41.60000,
,,,0.003713000000, -41.60000,
,,,0.003714000000, -40.80000,
,,,0.003715000000, -40.80000,
,,,0.003716000000, -40.80000,
,,,0.003717000000, -40.80000,
,,,0.003718000000, -40.80000,
,,,0.003719000000, -40.80000,
,,,0.003720000000, -40.80000,
,,,0.003721000000, -40.80000,
,,,0.003722000000, -40.00000,
,,,0.003723000000, -40.00000,
,,,0.003724000000, -40.80000,
,,,0.003725000000, -40.00000,
,,,0.003726000000, -40.00000,
,,,0.003727000000, -40.00000,
,,,0.003728000000, -40.00000,
,,,0.003729000000, -39.20000,
,,,0.003730000000, -39.20000,
,,,0.003731000000, -39.20000,
,,,0.003732000000, -39.20000,
,,,0.003733000000, -39.20000,
,,,0.003734000000, -39.20000,
,,,0.003735000000, -39.20000,
,,,0.003736000000, -38.40000,
,,,0.003737000000, -38.40000,
,,,0.003738000000, -39.20000,
,,,0.003739000000, -38.40000,
,,,0.003740000000, -38.40000,
,,,0.003741000000, -38.40000,
,,,0.003742000000, -38.40000,
,,,0.003743000000, -37.60000,
,,,0.003744000000, -37.60000,
,,,0.003745000000, -37.60000,
,,,0.003746000000, -37.60000,
,,,0.003747000000, -37.60000,
,,,0.003748000000, -37.60000,
,,,0.003749000000, -37.60000,
,,,0.003750000000, -37.60000,
,,,0.003751000000, -37.60000,
,,,0.003752000000, -36.80000,
,,,0.003753000000, -36.80000,
,,,0.003754000000, -36.80000,
,,,0.003755000000, -36.80000,
,,,0.003756000000, -36.80000,
,,,0.003757000000, -36.00000,
,,,0.003758000000, -36.00000,
,,,0.003759000000, -36.00000,
,,,0.003760000000, -36.00000,
,,,0.003761000000, -36.00000,
,,,0.003762000000, -36.00000,
,,,0.003763000000, -36.00000,
,,,0.003764000000, -35.20000,
,,,0.003765000000, -36.00000,
,,,0.003766000000, -36.00000,
,,,0.003767000000, -35.20000,
,,,0.003768000000, -35.20000,
,,,0.003769000000, -35.20000,
,,,0.003770000000, -35.20000,
,,,0.003771000000, -35.20000,
,,,0.003772000000, -35.20000,
,,,0.003773000000, -35.20000,
,,,0.003774000000, -34.40000,
,,,0.003775000000, -34.40000,
,,,0.003776000000, -34.40000,
,,,0.003777000000, -34.40000,
,,,0.003778000000, -33.60000,
,,,0.003779000000, -34.40000,
,,,0.003780000000, -33.60000,
,,,0.003781000000, -33.60000,
,,,0.003782000000, -33.60000,
,,,0.003783000000, -33.60000,
,,,0.003784000000, -33.60000,
,,,0.003785000000, -33.60000,
,,,0.003786000000, -32.80000,
,,,0.003787000000, -32.80000,
,,,0.003788000000, -32.80000,
,,,0.003789000000, -32.80000,
,,,0.003790000000, -32.80000,
,,,0.003791000000, -32.00000,
,,,0.003792000000, -32.00000,
,,,0.003793000000, -32.00000,
,,,0.003794000000, -32.00000,
,,,0.003795000000, -32.00000,
,,,0.003796000000, -32.00000,
,,,0.003797000000, -32.00000,
,,,0.003798000000, -32.00000,
,,,0.003799000000, -32.00000,
,,,0.003800000000, -31.20000,
,,,0.003801000000, -31.20000,
,,,0.003802000000, -31.20000,
,,,0.003803000000, -30.40000,
,,,0.003804000000, -30.40000,
,,,0.003805000000, -30.40000,
,,,0.003806000000, -30.40000,
,,,0.003807000000, -30.40000,
,,,0.003808000000, -30.40000,
,,,0.003809000000, -30.40000,
,,,0.003810000000, -29.60000,
,,,0.003811000000, -29.60000,
,,,0.003812000000, -29.60000,
,,,0.003813000000, -29.60000,
,,,0.003814000000, -29.60000,
,,,0.003815000000, -28.80000,
,,,0.003816000000, -29.60000,
,,,0.003817000000, -28.80000,
,,,0.003818000000, -28.80000,
,,,0.003819000000, -28.80000,
,,,0.003820000000, -28.80000,
,,,0.003821000000, -28.80000,
,,,0.003822000000, -28.80000,
,,,0.003823000000, -28.00000,
,,,0.003824000000, -28.00000,
,,,0.003825000000, -28.00000,
,,,0.003826000000, -28.80000,
,,,0.003827000000, -27.20000,
,,,0.003828000000, -27.20000,
,,,0.003829000000, -28.00000,
,,,0.003830000000, -28.00000,
,,,0.003831000000, -27.20000,
,,,0.003832000000, -27.20000,
,,,0.003833000000, -26.40000,
,,,0.003834000000, -27.20000,
,,,0.003835000000, -26.40000,
,,,0.003836000000, -26.40000,
,,,0.003837000000, -26.40000,
,,,0.003838000000, -27.20000,
,,,0.003839000000, -26.40000,
,,,0.003840000000, -25.60000,
,,,0.003841000000, -26.40000,
,,,0.003842000000, -25.60000,
,,,0.003843000000, -25.60000,
,,,0.003844000000, -25.60000,
,,,0.003845000000, -25.60000,
,,,0.003846000000, -24.80000,
,,,0.003847000000, -24.80000,
,,,0.003848000000, -24.80000,
,,,0.003849000000, -24.80000,
,,,0.003850000000, -24.80000,
,,,0.003851000000, -24.00000,
,,,0.003852000000, -24.80000,
,,,0.003853000000, -24.80000,
,,,0.003854000000, -24.00000,
,,,0.003855000000, -24.00000,
,,,0.003856000000, -23.20000,
,,,0.003857000000, -23.20000,
,,,0.003858000000, -24.00000,
,,,0.003859000000, -23.20000,
,,,0.003860000000, -23.20000,
,,,0.003861000000, -22.40000,
,,,0.003862000000, -23.20000,
,,,0.003863000000, -22.40000,
,,,0.003864000000, -22.40000,
,,,0.003865000000, -22.40000,
,,,0.003866000000, -22.40000,
,,,0.003867000000, -22.40000,
,,,0.003868000000, -21.60000,
,,,0.003869000000, -21.60000,
,,,0.003870000000, -22.40000,
,,,0.003871000000, -21.60000,
,,,0.003872000000, -21.60000,
,,,0.003873000000, -21.60000,
,,,0.003874000000, -21.60000,
,,,0.003875000000, -20.80000,
,,,0.003876000000, -20.80000,
,,,0.003877000000, -20.00000,
,,,0.003878000000, -20.00000,
,,,0.003879000000, -20.00000,
,,,0.003880000000, -20.00000,
,,,0.003881000000, -20.00000,
,,,0.003882000000, -20.00000,
,,,0.003883000000, -20.00000,
,,,0.003884000000, -19.20000,
,,,0.003885000000, -19.20000,
,,,0.003886000000, -19.20000,
,,,0.003887000000, -19.20000,
,,,0.003888000000, -19.20000,
,,,0.003889000000, -19.20000,
,,,0.003890000000, -18.40000,
,,,0.003891000000, -18.40000,
,,,0.003892000000, -18.40000,
,,,0.003893000000, -17.60000,
,,,0.003894000000, -17.60000,
